id,first_name,last_name,email,gender,ip_address,datetime,value,date
1,Angus,Vasilechko,avasilechko0@smugmug.com,Male,30.42.66.87,2019-11-24T05:23:03Z,11,11/8/2019
2,Edward,Trounce,etrounce1@bloglines.com,Male,99.93.207.135,2020-06-06T18:39:07Z,99.5,10/5/2019
3,Carmela,Rawlyns,crawlyns2@ameblo.jp,Female,62.175.111.186,2019-02-24T23:12:38Z,58,3/17/2020
4,Bale,O'Dunneen,bodunneen3@seattletimes.com,Male,244.120.190.223,2019-02-04T23:25:50Z,72,10/3/2019
5,Pandora,Ianinotti,pianinotti4@livejournal.com,Female,232.189.189.118,2019-08-21T15:43:36Z,38,10/28/2018
6,Wanda,Schleicher,wschleicher5@skype.com,Female,165.43.157.1,2018-10-20T21:11:29Z,87,12/24/2018
7,Sigismundo,Brittian,sbrittian6@vk.com,Male,225.229.250.83,2019-02-24T02:22:57Z,74,11/23/2019
8,Oberon,Yelden,oyelden7@dagondesign.com,Male,128.239.244.168,2019-12-04T17:47:38Z,19,1/3/2019
9,Stesha,Snoddon,ssnoddon8@nature.com,Female,74.114.191.54,2019-05-03T01:21:29Z,15,2/27/2019
10,Carlotta,Lumbly,clumbly9@yelp.com,Female,108.209.47.61,2019-08-22T18:53:54Z,6,9/27/2019
11,Geordie,Count,gcounta@i2i.jp,Male,164.0.128.229,2020-03-13T23:36:18Z,86,4/29/2020
12,Glynnis,Woolfitt,gwoolfittb@free.fr,Female,5.163.238.154,2019-05-17T02:07:09Z,91,5/29/2020
13,Roderic,Petchell,rpetchellc@comcast.net,Male,80.189.137.32,2019-11-12T14:58:23Z,65,7/22/2019
14,Uta,Cansfield,ucansfieldd@latimes.com,Female,253.81.12.102,2019-12-28T17:04:37Z,9,10/28/2019
15,Chere,Maxweell,cmaxweelle@storify.com,Female,19.228.71.23,2019-07-19T17:58:53Z,41,7/5/2019
16,Gregoire,Charter,gcharterf@msn.com,Male,85.30.88.220,2019-09-23T04:53:45Z,37,12/24/2019
17,Irwinn,Korejs,ikorejsg@aol.com,Male,5.157.106.114,2019-04-05T01:18:12Z,26,11/23/2019
18,Alix,Breznovic,abreznovich@chron.com,Male,139.21.243.254,2019-11-19T04:07:59Z,32,8/14/2019
19,Anallese,Tibbotts,atibbottsi@flickr.com,Female,160.205.98.226,2019-09-08T10:28:47Z,66,11/26/2018
20,Bent,Chamberlaine,bchamberlainej@wiley.com,Male,26.194.9.235,2020-03-23T21:23:20Z,96,4/21/2020
21,Adrien,Brabbs,abrabbsk@msn.com,Male,9.219.239.185,2019-02-26T04:38:27Z,10,2/3/2020
22,Sarajane,Siflet,ssifletl@booking.com,Female,136.46.202.237,2018-11-21T03:42:27Z,68,9/19/2018
23,Petronille,Berks,pberksm@state.tx.us,Female,165.112.121.120,2019-05-21T06:01:37Z,78,4/6/2020
24,Betty,Clowney,bclowneyn@arstechnica.com,Female,210.216.6.93,2020-03-27T10:18:57Z,69,1/4/2020
25,Cordelia,Guilleton,cguilletono@gravatar.com,Female,31.252.239.40,2019-07-17T06:22:35Z,15,3/2/2019
26,Cordey,Sansom,csansomp@arstechnica.com,Female,185.131.246.242,2020-05-19T09:48:45Z,10,11/3/2018
27,Krista,Storres,kstorresq@unicef.org,Female,163.77.147.228,2019-05-03T08:41:43Z,29,8/11/2019
28,Moss,Brosius,mbrosiusr@ow.ly,Male,37.162.189.123,2019-01-25T12:03:15Z,95,12/28/2018
29,Portie,Beumant,pbeumants@statcounter.com,Male,194.199.9.76,2019-10-11T19:32:13Z,70,6/16/2018
30,Mac,Pinckney,mpinckneyt@cam.ac.uk,Male,4.140.125.176,2019-07-29T12:25:32Z,23,4/22/2020
31,Addie,Zealander,azealanderu@reddit.com,Male,246.27.46.62,2018-12-26T23:48:09Z,69,5/14/2020
32,Carlo,Brimmicombe,cbrimmicombev@instagram.com,Male,32.46.231.185,2018-10-29T23:07:27Z,7,8/11/2018
33,Avrit,Wimpress,awimpressw@ovh.net,Female,24.101.84.222,2019-04-21T00:30:10Z,27,11/22/2019
34,Kalvin,Elnor,kelnorx@cornell.edu,Male,138.164.11.241,2018-08-20T16:03:47Z,80,6/11/2018
35,Lindsey,Swendell,lswendelly@biblegateway.com,Female,226.136.3.130,2019-08-15T19:43:43Z,8,10/13/2018
36,Jeromy,Betje,jbetjez@amazon.de,Male,65.204.137.175,2019-10-15T10:33:22Z,24,1/6/2019
37,Beale,Frensche,bfrensche10@yandex.ru,Male,166.157.114.78,2020-06-10T04:16:47Z,64,9/9/2018
38,Tabina,McEnery,tmcenery11@thetimes.co.uk,Female,124.96.110.217,2019-08-31T11:26:33Z,23,6/15/2019
39,Marvin,Scud,mscud12@sciencedirect.com,Male,139.131.162.177,2019-02-21T18:20:19Z,81,1/10/2020
40,Pamelina,Spurge,pspurge13@dion.ne.jp,Female,251.170.253.155,2020-01-15T19:34:31Z,36,3/11/2020
41,Winfred,Camerello,wcamerello14@123-reg.co.uk,Male,189.105.37.117,2019-08-11T09:35:04Z,76,11/2/2018
42,Laurene,Fasse,lfasse15@nyu.edu,Female,209.170.238.227,2018-08-11T01:31:43Z,85,12/13/2019
43,Olimpia,Cluley,ocluley16@opera.com,Female,100.28.49.128,2019-07-16T22:48:36Z,5,6/12/2019
44,Walsh,Harbord,wharbord17@alibaba.com,Male,68.10.98.94,2018-09-14T09:58:27Z,95,6/24/2019
45,Rosemarie,Alenin,ralenin18@shop-pro.jp,Female,92.24.161.215,2018-11-30T08:58:08Z,89,5/13/2019
46,Liuka,Shinfield,lshinfield19@usatoday.com,Female,2.16.19.3,2018-08-19T10:40:27Z,71,4/18/2020
47,Sabrina,Erswell,serswell1a@baidu.com,Female,76.49.178.52,2020-01-07T07:40:38Z,24,10/7/2018
48,Corney,Mingus,cmingus1b@nifty.com,Male,40.34.200.161,2020-05-15T11:10:45Z,53,1/2/2019
49,Anne-corinne,Greatbanks,agreatbanks1c@paypal.com,Female,113.75.29.109,2020-04-01T10:47:35Z,76,5/15/2020
50,Dominique,Josefs,djosefs1d@dot.gov,Female,217.35.14.185,2019-10-09T04:35:54Z,23,3/24/2020
51,Brnaby,Penhalurick,bpenhalurick1e@smh.com.au,Male,110.60.62.125,2020-02-28T02:28:33Z,71,1/16/2020
52,Buck,Alabone,balabone1f@github.com,Male,68.44.121.218,2019-08-25T03:53:29Z,72,10/7/2019
53,Elvina,Vinten,evinten1g@blinklist.com,Female,191.191.207.28,2020-03-26T17:29:35Z,91,9/13/2018
54,Talbert,Leport,tleport1h@unblog.fr,Male,183.178.152.111,2020-03-27T10:41:40Z,70,10/16/2019
55,Marcelline,Seckom,mseckom1i@techcrunch.com,Female,29.248.252.2,2019-12-08T09:01:31Z,94,5/24/2020
56,Elladine,Ketteman,eketteman1j@boston.com,Female,111.98.129.188,2018-10-01T14:23:50Z,44,9/14/2019
57,Staffard,Corkill,scorkill1k@oaic.gov.au,Male,46.118.48.157,2018-07-25T17:04:40Z,12,3/11/2019
58,Israel,Mosley,imosley1l@nhs.uk,Male,233.200.71.223,2020-05-12T15:43:59Z,90,3/14/2019
59,Keelia,McWhin,kmcwhin1m@scribd.com,Female,1.112.107.210,2019-06-12T21:50:59Z,100,7/2/2019
60,Opalina,Leggin,oleggin1n@shutterfly.com,Female,109.124.188.227,2018-08-08T07:09:35Z,81,8/29/2018
61,Zed,Bower,zbower1o@mapy.cz,Male,27.67.128.47,2018-11-23T15:15:07Z,42,9/20/2018
62,Alain,Derell,aderell1p@ox.ac.uk,Male,106.40.41.51,2020-04-10T07:34:05Z,73,7/29/2019
63,Saxe,Sloey,ssloey1q@google.ca,Male,134.129.18.247,2019-11-27T11:59:18Z,7,11/15/2018
64,Jeniece,Dugmore,jdugmore1r@yahoo.co.jp,Female,49.155.151.75,2018-07-20T19:34:24Z,43,5/3/2020
65,Vance,Filippi,vfilippi1s@foxnews.com,Male,178.156.34.38,2018-07-27T00:36:59Z,84,4/3/2019
66,Bengt,Sloyan,bsloyan1t@bluehost.com,Male,40.113.139.156,2019-06-08T15:38:16Z,70,3/26/2020
67,Carlie,Thomesson,cthomesson1u@angelfire.com,Male,63.60.199.81,2019-06-16T10:35:39Z,93,5/24/2020
68,Clarita,Sauven,csauven1v@prweb.com,Female,168.106.74.190,2019-06-09T13:12:14Z,1,8/16/2019
69,Marley,Mathivon,mmathivon1w@hp.com,Female,65.186.219.121,2020-02-12T12:20:42Z,19,7/10/2019
70,Randal,Hammerberger,rhammerberger1x@harvard.edu,Male,4.70.91.215,2019-02-04T21:03:15Z,93,7/9/2019
71,Lanna,Mougin,lmougin1y@businesswire.com,Female,184.172.198.58,2019-03-26T21:59:43Z,17,5/1/2019
72,Sayre,Reynoldson,sreynoldson1z@opera.com,Male,117.217.166.164,2019-10-18T23:22:16Z,73,9/14/2018
73,Byram,Sworne,bsworne20@hp.com,Male,184.18.144.22,2019-08-05T09:25:39Z,41,8/19/2018
74,Cherry,Paula,cpaula21@usda.gov,Female,235.203.3.25,2018-10-21T01:49:48Z,72,7/3/2018
75,Antonie,Parmley,aparmley22@cargocollective.com,Female,1.41.144.91,2019-02-13T13:32:22Z,24,7/1/2019
76,Sonya,Gudgion,sgudgion23@simplemachines.org,Female,242.80.6.150,2018-10-05T21:12:57Z,68,11/26/2018
77,Marwin,McClary,mmcclary24@psu.edu,Male,154.154.146.43,2019-07-25T02:26:18Z,48,9/23/2018
78,Dimitri,Defau,ddefau25@icio.us,Male,179.248.244.83,2019-11-14T14:33:57Z,38,10/24/2019
79,Bryn,Brigginshaw,bbrigginshaw26@wikia.com,Female,248.166.104.218,2019-09-22T02:18:23Z,37,9/5/2019
80,Janel,Charrington,jcharrington27@mayoclinic.com,Female,200.180.101.2,2018-06-28T05:29:56Z,34,10/18/2018
81,Nicoline,Laugheran,nlaugheran28@economist.com,Female,183.29.75.149,2020-04-12T01:32:55Z,23,7/7/2019
82,Latrena,Lanegran,llanegran29@deliciousdays.com,Female,201.164.35.132,2019-08-16T06:22:37Z,61,1/15/2020
83,Bamby,Bettlestone,bbettlestone2a@exblog.jp,Female,118.229.4.37,2018-09-25T10:48:44Z,53,6/27/2018
84,Wilbert,Gooday,wgooday2b@uol.com.br,Male,252.58.216.24,2019-05-09T19:06:04Z,61,8/20/2018
85,Clay,Mc Elory,cmcelory2c@statcounter.com,Male,181.5.195.21,2018-07-03T06:40:51Z,52,12/8/2019
86,Arvie,Levens,alevens2d@sourceforge.net,Male,188.253.160.207,2018-10-14T22:19:34Z,37,5/7/2019
87,Regine,Bonifazio,rbonifazio2e@acquirethisname.com,Female,153.234.177.172,2018-09-08T01:31:49Z,6,1/1/2020
88,Cristie,Luchetti,cluchetti2f@pagesperso-orange.fr,Female,52.191.153.95,2019-09-14T16:35:44Z,71,4/6/2020
89,Mirna,McMeyler,mmcmeyler2g@paypal.com,Female,53.79.219.141,2020-02-14T23:20:42Z,7,5/28/2020
90,Geoffry,Sambell,gsambell2h@flickr.com,Male,198.53.234.120,2018-08-02T19:10:11Z,25,9/3/2019
91,Leanora,Baldocci,lbaldocci2i@omniture.com,Female,76.200.104.86,2019-01-14T15:20:46Z,41,10/20/2019
92,Kendrick,Maddyson,kmaddyson2j@cargocollective.com,Male,97.121.198.15,2020-01-15T09:12:35Z,36,10/22/2018
93,Augustus,Tanslie,atanslie2k@hibu.com,Male,97.250.97.151,2018-11-06T14:30:55Z,55,4/20/2020
94,Tera,Marishenko,tmarishenko2l@zimbio.com,Female,20.229.252.230,2019-03-09T07:37:51Z,41,1/21/2019
95,Steffi,Hunter,shunter2m@wix.com,Female,238.147.223.242,2018-08-30T07:56:41Z,67,2/1/2020
96,Hestia,Bryant,hbryant2n@blinklist.com,Female,238.95.67.69,2018-11-20T19:36:14Z,19,2/24/2019
97,Melva,Klein,mklein2o@alibaba.com,Female,115.212.31.106,2018-12-30T16:31:09Z,12,12/7/2019
98,Lolly,Gatheral,lgatheral2p@tumblr.com,Female,93.79.36.224,2019-03-15T16:12:29Z,87,8/26/2019
99,Geneva,MacKerley,gmackerley2q@topsy.com,Female,100.198.233.35,2020-03-09T08:38:39Z,16,8/24/2018
100,Myrilla,Cadreman,mcadreman2r@illinois.edu,Female,72.172.4.178,2019-09-04T05:00:45Z,83,2/12/2020
101,Cris,MacCartney,cmaccartney2s@istockphoto.com,Female,22.128.142.195,2019-06-27T08:49:12Z,80,7/4/2018
102,Cristobal,Dict,cdict2t@comsenz.com,Male,33.236.190.18,2019-04-15T23:17:52Z,21,1/16/2020
103,Juliane,Klimushev,jklimushev2u@issuu.com,Female,114.101.210.139,2019-01-01T16:18:22Z,54,5/28/2019
104,Jaquelyn,Fazzioli,jfazzioli2v@vistaprint.com,Female,114.7.163.17,2019-08-30T08:28:31Z,4,10/1/2018
105,Andras,Baldick,abaldick2w@friendfeed.com,Male,130.187.200.8,2019-05-01T22:40:25Z,19,11/2/2019
106,Charis,Fudge,cfudge2x@mysql.com,Female,58.97.224.28,2020-04-17T22:05:29Z,24,6/8/2020
107,Cleopatra,Ballantyne,cballantyne2y@macromedia.com,Female,51.253.69.3,2020-04-22T13:50:16Z,70,1/5/2019
108,Rickey,Wawer,rwawer2z@slideshare.net,Male,255.115.100.134,2018-11-29T10:26:52Z,68,12/5/2019
109,Orazio,Pashenkov,opashenkov30@canalblog.com,Male,181.94.210.56,2019-02-17T09:06:24Z,90,2/2/2019
110,Erna,Conyard,econyard31@nydailynews.com,Female,160.229.186.60,2018-09-19T21:30:39Z,42,1/24/2020
111,Aksel,Fear,afear32@uol.com.br,Male,192.226.169.249,2019-06-07T06:06:32Z,52,9/8/2019
112,Dyana,McMearty,dmcmearty33@booking.com,Female,173.69.48.249,2020-05-23T18:04:07Z,97,11/4/2018
113,Burt,Stannah,bstannah34@usatoday.com,Male,249.145.6.84,2020-02-03T00:33:34Z,47,1/31/2020
114,Fax,Lindman,flindman35@timesonline.co.uk,Male,224.247.184.228,2019-02-07T10:06:18Z,94,1/9/2019
115,Nicoli,Shilstone,nshilstone36@parallels.com,Female,171.247.164.12,2020-01-31T13:05:37Z,47,6/22/2018
116,Donny,Gullivan,dgullivan37@blogtalkradio.com,Male,131.57.195.165,2020-02-28T09:11:48Z,87,12/16/2019
117,Rennie,Poag,rpoag38@wordpress.com,Female,56.46.62.4,2020-01-01T04:15:40Z,44,8/9/2018
118,Victoir,Colvin,vcolvin39@indiatimes.com,Male,233.48.110.127,2019-10-13T04:11:59Z,68,11/8/2019
119,Benn,Calderwood,bcalderwood3a@reverbnation.com,Male,42.153.35.66,2019-06-02T20:07:56Z,79,1/12/2019
120,Slade,Santos,ssantos3b@discovery.com,Male,37.181.192.173,2019-07-05T05:21:19Z,86,10/14/2018
121,Ebeneser,Petticrew,epetticrew3c@clickbank.net,Male,137.49.66.233,2019-12-01T12:23:16Z,76,5/22/2019
122,Ruben,Pogson,rpogson3d@harvard.edu,Male,125.122.66.169,2019-05-04T19:41:16Z,99,10/1/2018
123,Urbanus,Monkton,umonkton3e@wikispaces.com,Male,67.75.172.190,2020-06-04T23:19:43Z,27,6/28/2018
124,Jessalin,Pyke,jpyke3f@reference.com,Female,219.248.83.120,2019-09-20T22:00:16Z,97,2/8/2020
125,Anita,Edgeson,aedgeson3g@51.la,Female,184.156.188.120,2018-06-14T12:58:54Z,70,3/1/2020
126,Levin,Merchant,lmerchant3h@dell.com,Male,136.56.4.233,2020-04-21T06:48:57Z,73,12/1/2018
127,Cooper,Kerrey,ckerrey3i@tamu.edu,Male,185.200.58.118,2019-01-06T09:06:06Z,33,1/11/2020
128,Rollin,Bulfoy,rbulfoy3j@digg.com,Male,8.170.102.31,2018-12-14T10:02:31Z,58,6/26/2018
129,Tades,Trubshawe,ttrubshawe3k@deliciousdays.com,Male,83.40.103.26,2018-12-01T15:07:37Z,60,4/14/2020
130,Athena,Howell,ahowell3l@mayoclinic.com,Female,132.228.226.24,2018-07-29T13:38:47Z,22,3/14/2020
131,Elnore,Prevett,eprevett3m@elegantthemes.com,Female,21.173.66.71,2018-10-23T18:56:26Z,37,4/27/2020
132,Shantee,Masters,smasters3n@nasa.gov,Female,101.91.152.130,2019-05-07T12:29:15Z,85,10/29/2019
133,Valry,Reeder,vreeder3o@thetimes.co.uk,Female,171.208.127.96,2019-05-01T19:06:08Z,30,11/15/2018
134,Ogden,Gouth,ogouth3p@unc.edu,Male,140.195.178.210,2019-02-14T05:08:15Z,37,8/25/2019
135,Alwin,Lavrick,alavrick3q@bbb.org,Male,179.89.151.25,2018-09-21T11:20:04Z,72,6/22/2018
136,Murielle,Tattersdill,mtattersdill3r@clickbank.net,Female,228.215.202.183,2019-09-28T20:03:39Z,97,9/5/2019
137,Chickie,Frunks,cfrunks3s@posterous.com,Female,151.78.116.61,2019-05-21T06:26:08Z,39,11/25/2018
138,Mala,Collison,mcollison3t@boston.com,Female,40.93.178.49,2020-03-28T00:20:54Z,85,3/20/2019
139,Douglass,Phil,dphil3u@bbb.org,Male,94.234.180.68,2019-07-14T14:41:56Z,36,2/21/2020
140,Grange,Wibrow,gwibrow3v@hao123.com,Male,3.191.96.87,2020-02-16T09:54:35Z,85,5/18/2020
141,Kale,Stonelake,kstonelake3w@tamu.edu,Male,93.248.176.231,2019-02-21T12:35:00Z,52,6/21/2019
142,Ancell,Calverley,acalverley3x@alexa.com,Male,210.195.89.17,2020-04-29T08:46:27Z,53,6/24/2019
143,Piggy,Picott,ppicott3y@fastcompany.com,Male,118.71.46.94,2019-08-24T07:06:34Z,32,3/27/2019
144,Hyman,Portugal,hportugal3z@rambler.ru,Male,110.246.153.119,2020-06-04T07:30:00Z,24,12/28/2018
145,Gil,Wiltshire,gwiltshire40@prlog.org,Male,124.249.245.180,2018-06-20T04:32:53Z,22,6/19/2019
146,Horten,Baal,hbaal41@nydailynews.com,Male,29.66.40.24,2019-01-24T15:28:09Z,95,9/26/2019
147,Phelia,Doody,pdoody42@timesonline.co.uk,Female,148.250.202.18,2020-05-31T07:10:29Z,25,12/21/2018
148,Alexandrina,Brech,abrech43@icio.us,Female,190.88.128.250,2019-07-20T11:18:23Z,74,12/22/2019
149,Mariya,Sonner,msonner44@freewebs.com,Female,119.230.213.110,2020-04-21T21:27:02Z,51,10/31/2018
150,Fina,Labbet,flabbet45@yandex.ru,Female,45.23.100.206,2019-12-29T07:48:23Z,37,5/7/2020
151,Phil,Gall,pgall46@ox.ac.uk,Female,54.183.127.116,2020-05-12T09:34:08Z,4,11/9/2018
152,Webster,Soffe,wsoffe47@deliciousdays.com,Male,204.128.204.228,2019-02-09T17:58:27Z,84,1/16/2020
153,Anitra,Strangwood,astrangwood48@e-recht24.de,Female,172.101.251.45,2019-02-16T01:25:04Z,30,12/11/2019
154,Corene,Syrie,csyrie49@exblog.jp,Female,138.30.68.2,2019-02-05T21:04:52Z,88,10/25/2019
155,Friedrich,Aggett,faggett4a@earthlink.net,Male,58.43.63.112,2020-02-23T00:14:18Z,97,6/9/2020
156,Christoph,Burch,cburch4b@weather.com,Male,239.192.71.176,2019-10-20T12:30:32Z,47,1/9/2019
157,Alexei,Solomonides,asolomonides4c@vistaprint.com,Male,177.41.146.177,2019-11-28T23:08:00Z,27,1/25/2019
158,Roz,Ramme,rramme4d@wix.com,Female,30.73.1.36,2019-12-16T19:56:05Z,59,7/9/2019
159,Tarra,Lynde,tlynde4e@twitpic.com,Female,251.192.170.131,2020-06-10T02:48:03Z,29,10/10/2018
160,Brant,Goneau,bgoneau4f@ca.gov,Male,186.42.156.204,2018-12-26T19:23:28Z,3,6/30/2018
161,Claybourne,Saggs,csaggs4g@cornell.edu,Male,113.92.132.33,2019-01-09T17:22:22Z,17,12/4/2018
162,Juliet,Carneck,jcarneck4h@devhub.com,Female,157.166.94.169,2020-03-04T22:02:26Z,89,10/23/2018
163,Ramsey,Bernardotte,rbernardotte4i@lulu.com,Male,164.161.155.224,2020-01-04T21:05:25Z,88,3/19/2019
164,Gaby,Custance,gcustance4j@illinois.edu,Male,115.71.17.144,2020-02-20T14:19:17Z,64,9/25/2019
165,Padraig,Sarjant,psarjant4k@discovery.com,Male,81.86.61.74,2019-08-21T23:40:07Z,73,9/24/2018
166,Wilek,Berney,wberney4l@bloglovin.com,Male,167.183.35.243,2019-07-01T23:35:51Z,2,4/23/2019
167,Byrle,Gyrgorwicx,bgyrgorwicx4m@surveymonkey.com,Male,33.244.141.235,2018-12-30T15:50:12Z,93,6/7/2019
168,Nefen,Doone,ndoone4n@wisc.edu,Male,67.125.248.80,2018-09-07T03:14:44Z,49,8/16/2018
169,Ernst,Lorroway,elorroway4o@over-blog.com,Male,151.215.32.25,2019-05-13T14:09:01Z,16,6/26/2018
170,Stacee,Bittleson,sbittleson4p@google.nl,Female,2.26.73.137,2018-07-11T03:05:57Z,88,5/28/2019
171,Hally,Clearie,hclearie4q@vimeo.com,Female,86.173.9.191,2019-07-30T12:35:56Z,97,12/11/2018
172,Ezri,Twiggs,etwiggs4r@ucoz.ru,Male,201.182.41.91,2019-01-20T08:22:40Z,65,12/14/2019
173,Kerianne,Mattinson,kmattinson4s@trellian.com,Female,224.226.210.15,2018-07-07T00:40:12Z,95,12/26/2018
174,Rafa,Hannabuss,rhannabuss4t@cnbc.com,Female,204.222.113.15,2019-10-31T06:17:04Z,71,4/22/2020
175,Rancell,Snowman,rsnowman4u@sohu.com,Male,110.79.76.93,2019-03-12T11:38:00Z,12,8/14/2019
176,Agnesse,Fiddler,afiddler4v@feedburner.com,Female,187.224.25.79,2020-02-15T00:24:52Z,29,7/5/2018
177,Kara,McCaw,kmccaw4w@linkedin.com,Female,104.213.17.177,2019-10-23T05:48:45Z,3,7/17/2018
178,Eward,Pawellek,epawellek4x@google.nl,Male,181.125.159.112,2018-09-11T02:56:51Z,84,8/17/2018
179,Shepperd,McCaughey,smccaughey4y@jiathis.com,Male,54.38.89.244,2020-01-13T03:53:15Z,46,12/5/2018
180,Rockwell,McKeaveney,rmckeaveney4z@issuu.com,Male,161.68.140.20,2019-09-16T17:41:45Z,29,6/24/2019
181,Quill,Medler,qmedler50@chicagotribune.com,Male,93.48.50.75,2020-05-25T08:49:15Z,92,12/25/2018
182,Percy,Swanborough,pswanborough51@nih.gov,Male,238.192.61.39,2020-03-02T12:44:32Z,27,11/5/2018
183,Elspeth,Tomblin,etomblin52@xrea.com,Female,98.77.147.72,2020-01-17T09:15:18Z,84,10/20/2018
184,Timi,Tilbey,ttilbey53@patch.com,Female,188.192.136.152,2019-09-22T15:23:37Z,99,4/10/2019
185,Robyn,Epperson,repperson54@webmd.com,Female,50.110.135.40,2019-10-11T15:00:12Z,51,7/13/2019
186,Penn,Siverns,psiverns55@state.tx.us,Male,156.107.149.68,2019-09-21T02:09:30Z,81,10/3/2019
187,Marlena,Elington,melington56@ed.gov,Female,195.82.66.77,2019-12-28T22:29:57Z,32,3/21/2020
188,Kyrstin,Walklett,kwalklett57@storify.com,Female,99.20.42.144,2019-02-24T21:25:34Z,68,9/7/2019
189,Britte,Duffie,bduffie58@globo.com,Female,143.250.121.230,2018-10-17T12:17:25Z,13,6/23/2019
190,Yalonda,Frape,yfrape59@mashable.com,Female,156.94.129.163,2019-08-05T01:46:27Z,75,9/21/2018
191,Philomena,Dowrey,pdowrey5a@google.nl,Female,208.164.137.158,2019-07-05T21:02:42Z,40,12/8/2018
192,Ingemar,Nertney,inertney5b@epa.gov,Male,248.181.230.149,2019-03-27T12:18:48Z,61,6/15/2018
193,Ariadne,Navan,anavan5c@topsy.com,Female,181.76.166.247,2020-06-10T05:32:40Z,73,4/24/2019
194,Ambrose,Wansbury,awansbury5d@nsw.gov.au,Male,5.74.113.144,2018-10-26T19:59:42Z,100,7/26/2018
195,Peterus,Dunkerley,pdunkerley5e@cdbaby.com,Male,84.121.94.182,2019-04-06T19:19:17Z,72,12/10/2018
196,Jared,Shotboult,jshotboult5f@newsvine.com,Male,129.129.200.150,2020-05-15T05:35:04Z,26,8/27/2018
197,Hirsch,Mitchell,hmitchell5g@pen.io,Male,115.172.96.155,2020-04-01T01:08:50Z,37,3/16/2020
198,Antonius,Speachley,aspeachley5h@last.fm,Male,230.58.117.64,2019-12-25T03:58:49Z,37,9/12/2018
199,Mace,Bartley,mbartley5i@cmu.edu,Male,233.101.255.196,2020-05-03T20:47:04Z,45,12/24/2019
200,Con,Feldmus,cfeldmus5j@ameblo.jp,Female,65.149.236.237,2020-02-21T23:14:31Z,48,1/18/2020
201,Ruthi,Walshe,rwalshe5k@scribd.com,Female,135.30.55.201,2020-04-10T11:47:38Z,3,10/18/2019
202,Chester,Horbart,chorbart5l@tripod.com,Male,33.124.146.175,2019-09-01T04:14:21Z,69,2/24/2020
203,David,Carson,dcarson5m@sfgate.com,Male,152.19.207.28,2019-10-13T17:48:25Z,86,11/8/2019
204,Gusta,Hazelgrove,ghazelgrove5n@bizjournals.com,Female,200.230.214.233,2019-08-22T21:49:25Z,99,2/19/2020
205,Uri,Rasor,urasor5o@hugedomains.com,Male,85.245.34.90,2019-08-04T13:46:12Z,85,5/5/2019
206,Bonni,Killigrew,bkilligrew5p@mayoclinic.com,Female,121.59.221.56,2018-08-02T08:39:24Z,10,6/22/2019
207,Dodie,Rispen,drispen5q@yahoo.co.jp,Female,230.138.213.34,2018-12-08T22:25:41Z,75,1/28/2020
208,Alaster,Faichnie,afaichnie5r@wikipedia.org,Male,176.56.169.144,2019-06-09T06:31:23Z,67,11/2/2019
209,Hermine,Mooring,hmooring5s@boston.com,Female,218.252.50.144,2019-03-19T09:59:55Z,45,5/11/2019
210,Scottie,Crossgrove,scrossgrove5t@t-online.de,Male,206.84.215.99,2019-03-29T13:11:40Z,77,7/19/2018
211,Sheff,Cockayme,scockayme5u@cornell.edu,Male,110.26.116.13,2019-11-10T02:46:24Z,26,9/26/2018
212,Gracia,Anthonsen,ganthonsen5v@google.es,Female,124.8.142.108,2018-07-22T01:22:56Z,43,10/7/2019
213,Obidiah,Piaggia,opiaggia5w@adobe.com,Male,153.136.34.1,2019-11-05T13:24:11Z,25,9/19/2018
214,Essy,McKeand,emckeand5x@cyberchimps.com,Female,233.218.236.228,2020-02-09T21:41:03Z,76,7/5/2019
215,Emmalyn,Tather,etather5y@wp.com,Female,40.67.71.14,2020-01-25T04:04:03Z,93,10/12/2018
216,Winfred,Rasper,wrasper5z@symantec.com,Male,31.241.102.198,2020-06-01T00:22:10Z,48,1/11/2020
217,Britt,Jouannot,bjouannot60@newsvine.com,Female,9.214.137.58,2019-06-17T10:20:09Z,12,6/22/2018
218,Chanda,Streight,cstreight61@seattletimes.com,Female,155.130.56.55,2020-05-25T10:33:51Z,54,9/9/2019
219,Nealon,Beecraft,nbeecraft62@w3.org,Male,74.213.105.32,2019-10-08T20:02:00Z,98,12/8/2018
220,Alexandre,Lewty,alewty63@yandex.ru,Male,51.169.202.70,2019-10-26T08:26:38Z,45,6/3/2019
221,Myrna,MacRirie,mmacririe64@tiny.cc,Female,85.207.235.220,2019-08-19T08:23:00Z,8,9/10/2019
222,Job,Snedden,jsnedden65@flickr.com,Male,143.105.93.85,2019-08-17T16:14:05Z,55,3/27/2020
223,Tim,Beiderbecke,tbeiderbecke66@baidu.com,Female,45.251.94.186,2019-08-01T06:43:39Z,100,7/27/2018
224,Moyna,Gorhardt,mgorhardt67@wikimedia.org,Female,132.3.74.231,2018-07-30T20:44:38Z,51,3/12/2020
225,Mortie,Petteford,mpetteford68@gov.uk,Male,161.73.211.134,2018-10-10T04:57:03Z,77,4/4/2020
226,Chrissy,Crosser,ccrosser69@ifeng.com,Male,84.125.39.126,2019-05-16T23:11:08Z,18,5/8/2020
227,Shayla,Ayliff,sayliff6a@dion.ne.jp,Female,158.12.100.176,2019-03-31T12:23:24Z,31,8/31/2019
228,Elene,Brownill,ebrownill6b@joomla.org,Female,88.190.13.170,2019-08-23T21:53:21Z,18,9/21/2019
229,Gram,Niemetz,gniemetz6c@fc2.com,Male,219.133.220.126,2018-08-27T00:04:16Z,95,1/13/2019
230,Oran,Lalley,olalley6d@github.io,Male,26.43.227.70,2019-01-06T20:09:56Z,37,11/19/2018
231,Carmelia,Monteath,cmonteath6e@apache.org,Female,91.163.203.129,2018-06-30T19:14:08Z,85,7/26/2019
232,Merry,Quade,mquade6f@senate.gov,Male,114.76.39.225,2018-12-27T19:14:40Z,61,1/5/2020
233,Nichole,Brauner,nbrauner6g@nsw.gov.au,Female,200.244.141.241,2019-04-12T07:34:23Z,30,6/20/2018
234,Coraline,Dongate,cdongate6h@addtoany.com,Female,120.141.79.169,2018-11-13T07:29:37Z,19,4/9/2019
235,Daryl,Roebuck,droebuck6i@newsvine.com,Male,81.219.162.123,2020-03-17T01:36:42Z,59,10/6/2019
236,Tymothy,Marquot,tmarquot6j@parallels.com,Male,178.30.95.253,2020-02-18T18:36:12Z,87,12/9/2019
237,Godfrey,Tiplady,gtiplady6k@icq.com,Male,155.82.87.59,2018-10-29T07:32:44Z,26,9/15/2018
238,Redd,Dudley,rdudley6l@berkeley.edu,Male,107.215.247.149,2018-12-29T10:32:36Z,31,12/7/2019
239,Wren,Gillett,wgillett6m@ed.gov,Female,241.2.241.44,2019-01-18T10:16:24Z,53,2/27/2020
240,Roderigo,Jeckell,rjeckell6n@51.la,Male,105.59.54.33,2020-02-13T18:02:53Z,3,8/11/2018
241,Brinna,Quibell,bquibell6o@businessweek.com,Female,56.54.227.217,2018-10-29T02:38:25Z,74,1/13/2019
242,Moselle,Hagan,mhagan6p@ameblo.jp,Female,182.96.55.239,2019-10-10T17:20:36Z,31,3/14/2020
243,Sandy,Barensen,sbarensen6q@globo.com,Male,59.165.163.225,2019-06-30T15:00:21Z,96,3/29/2019
244,Ailsun,Laffin,alaffin6r@taobao.com,Female,175.157.222.18,2020-03-11T04:29:56Z,68,8/16/2018
245,Vasili,Marrett,vmarrett6s@seesaa.net,Male,146.57.251.238,2018-07-31T04:27:39Z,10,8/6/2018
246,Roz,Tothacot,rtothacot6t@cnbc.com,Female,173.9.21.34,2020-03-05T06:17:22Z,8,1/31/2019
247,Kayla,Fink,kfink6u@tamu.edu,Female,87.183.64.227,2020-01-07T16:44:00Z,37,3/31/2019
248,Rufe,Skeels,rskeels6v@wix.com,Male,120.29.153.73,2018-11-27T15:47:24Z,72,2/2/2020
249,Stacee,Baynton,sbaynton6w@businessinsider.com,Male,182.7.207.92,2020-05-03T14:47:56Z,92,4/23/2020
250,Gilda,Penvarne,gpenvarne6x@reverbnation.com,Female,61.33.101.177,2018-08-03T20:05:15Z,72,5/13/2020
251,Ardelle,Clendinning,aclendinning6y@nbcnews.com,Female,147.234.25.249,2018-08-31T13:58:36Z,72,4/22/2019
252,Lorilyn,Cicerone,lcicerone6z@ebay.co.uk,Female,137.115.112.57,2019-04-25T06:52:30Z,61,12/7/2018
253,Inna,Treadaway,itreadaway70@livejournal.com,Female,81.204.83.251,2019-12-27T08:06:11Z,36,12/15/2019
254,Pierette,Huntley,phuntley71@constantcontact.com,Female,151.215.17.105,2018-09-22T17:42:55Z,3,10/11/2018
255,Roxy,Fibbit,rfibbit72@cbslocal.com,Female,241.18.54.60,2018-12-17T02:31:22Z,12,1/18/2020
256,Erin,Hillum,ehillum73@github.io,Female,160.245.87.27,2019-10-07T11:07:59Z,67,9/8/2018
257,Susann,Gillian,sgillian74@google.pl,Female,168.10.110.1,2018-12-12T01:50:53Z,62,12/30/2018
258,Perren,Whyatt,pwhyatt75@squarespace.com,Male,227.215.34.135,2019-03-02T09:37:57Z,36,12/7/2019
259,Frasquito,Castille,fcastille76@parallels.com,Male,116.33.5.68,2019-12-08T00:07:54Z,50,5/30/2020
260,Foster,O'Clery,foclery77@rakuten.co.jp,Male,119.105.84.58,2019-06-11T07:02:19Z,16,5/6/2019
261,Ive,Shrubshall,ishrubshall78@rambler.ru,Male,76.128.10.163,2019-06-18T06:22:39Z,69,7/23/2018
262,Pierce,Burfitt,pburfitt79@wp.com,Male,142.19.150.221,2018-07-19T17:08:32Z,39,11/5/2018
263,Odette,Di Claudio,odiclaudio7a@hp.com,Female,58.201.71.249,2019-01-04T02:56:59Z,9,8/30/2018
264,Skipper,Gracewood,sgracewood7b@mozilla.com,Male,17.191.200.20,2019-07-16T14:08:38Z,85,8/14/2018
265,Lynn,Dorton,ldorton7c@springer.com,Male,104.217.62.72,2020-03-28T11:07:29Z,93,11/16/2019
266,Windham,Tomlin,wtomlin7d@huffingtonpost.com,Male,131.197.156.189,2019-09-07T00:30:22Z,59,10/30/2019
267,Marthena,Elies,melies7e@squidoo.com,Female,19.42.135.176,2019-06-16T13:56:43Z,76,10/7/2019
268,Elysia,Burdytt,eburdytt7f@mac.com,Female,245.234.101.53,2019-01-25T11:07:19Z,35,11/26/2019
269,Walden,Kerswell,wkerswell7g@unc.edu,Male,95.222.7.189,2019-07-31T01:40:25Z,65,12/7/2019
270,Shela,Gladhill,sgladhill7h@berkeley.edu,Female,78.226.110.196,2018-12-12T17:14:03Z,48,9/26/2019
271,Seward,Kighly,skighly7i@yolasite.com,Male,61.116.54.165,2018-06-21T17:56:24Z,35,8/12/2019
272,Vivian,Domokos,vdomokos7j@dailymotion.com,Female,33.173.103.191,2019-01-21T04:22:53Z,56,7/8/2019
273,Kienan,Pabelik,kpabelik7k@vimeo.com,Male,139.227.84.185,2018-06-18T08:53:07Z,20,6/24/2018
274,Bondy,Elstone,belstone7l@canalblog.com,Male,114.76.208.226,2018-06-27T11:22:16Z,74,11/2/2018
275,Calvin,Aarons,caarons7m@nydailynews.com,Male,58.158.27.76,2019-02-01T04:52:43Z,23,2/11/2020
276,Ricky,Eyckelberg,reyckelberg7n@artisteer.com,Female,228.198.31.11,2020-04-13T18:12:06Z,24,12/14/2019
277,Somerset,Gookes,sgookes7o@eventbrite.com,Male,101.189.127.55,2019-10-22T23:56:59Z,26,4/8/2019
278,Warden,Sinden,wsinden7p@thetimes.co.uk,Male,204.16.252.167,2020-01-25T09:27:16Z,76,2/25/2019
279,Conway,Laimable,claimable7q@typepad.com,Male,40.62.172.133,2018-12-24T03:37:45Z,85,4/21/2020
280,Filia,Deeley,fdeeley7r@bbb.org,Female,141.247.6.183,2020-03-01T17:49:21Z,59,8/21/2019
281,Natty,Byrcher,nbyrcher7s@washington.edu,Female,207.202.46.40,2019-12-25T05:24:51Z,60,10/16/2018
282,Maddy,Abdon,mabdon7t@bbc.co.uk,Male,207.207.195.135,2020-05-27T16:57:29Z,100,5/17/2020
283,Kerrin,Dolder,kdolder7u@google.fr,Female,243.238.224.83,2020-05-20T01:38:47Z,14,2/10/2020
284,Freida,Tournay,ftournay7v@oracle.com,Female,216.79.73.6,2018-07-05T14:47:11Z,87,9/28/2018
285,Rolf,Abbess,rabbess7w@bloglovin.com,Male,206.117.9.207,2019-10-23T00:28:44Z,37,4/4/2019
286,Blaine,Ferson,bferson7x@unesco.org,Male,223.206.66.143,2019-01-29T06:38:46Z,50,7/19/2018
287,Minnie,Muirhead,mmuirhead7y@ask.com,Female,23.97.4.157,2018-06-27T20:47:41Z,86,8/24/2019
288,Moll,Aubert,maubert7z@comsenz.com,Female,163.134.48.37,2020-02-21T11:11:31Z,25,7/2/2018
289,Stanly,Guinnane,sguinnane80@state.tx.us,Male,100.148.114.21,2018-12-23T15:35:06Z,71,7/4/2018
290,Fenelia,Marrow,fmarrow81@joomla.org,Female,28.135.83.64,2019-08-05T13:07:47Z,66,11/30/2018
291,Any,Welband,awelband82@elpais.com,Male,55.20.2.203,2020-03-17T03:49:05Z,17,1/4/2020
292,Tiler,Hansman,thansman83@prnewswire.com,Male,3.51.86.220,2018-10-20T21:23:52Z,49,6/6/2019
293,Nikaniki,Puckham,npuckham84@who.int,Female,230.95.59.129,2020-06-09T20:12:08Z,100,6/9/2019
294,Isabel,Mc Trusty,imctrusty85@archive.org,Female,185.127.2.83,2019-04-19T01:41:19Z,95,3/13/2020
295,Idell,Gooderridge,igooderridge86@bbb.org,Female,112.115.92.4,2020-02-06T09:19:37Z,93,5/1/2020
296,Roth,Bussens,rbussens87@lulu.com,Male,197.155.119.149,2019-12-24T08:55:20Z,80,12/13/2019
297,Maury,Bysh,mbysh88@ask.com,Male,85.15.191.7,2018-11-06T13:41:38Z,97,7/12/2018
298,Mendel,Christofle,mchristofle89@skyrock.com,Male,33.182.235.27,2018-08-14T06:52:39Z,44,5/26/2019
299,Vitia,Espinoza,vespinoza8a@google.pl,Female,87.31.126.30,2019-05-15T05:47:13Z,21,1/23/2019
300,Gwenora,Slaney,gslaney8b@wikimedia.org,Female,198.106.184.132,2018-10-03T12:36:58Z,99,4/3/2020
301,Shea,Nail,snail8c@upenn.edu,Female,186.237.249.50,2019-06-08T20:04:41Z,29,12/31/2019
302,Berkie,Islep,bislep8d@msu.edu,Male,114.136.127.84,2019-08-10T07:08:57Z,71,12/16/2019
303,Jefferson,Harrad,jharrad8e@bizjournals.com,Male,46.103.217.111,2020-04-25T01:06:17Z,42,5/26/2019
304,Christiano,O'Neal,coneal8f@csmonitor.com,Male,102.135.47.48,2019-08-05T06:54:22Z,2,5/12/2019
305,Rhett,Story,rstory8g@unesco.org,Male,79.112.195.24,2019-03-23T21:47:26Z,17,6/29/2019
306,Sandye,Cruikshanks,scruikshanks8h@disqus.com,Female,126.254.244.58,2019-03-20T23:02:59Z,44,5/20/2019
307,Lazarus,Barden,lbarden8i@domainmarket.com,Male,52.200.4.65,2019-08-26T15:04:35Z,63,3/1/2020
308,Gerrilee,Bollard,gbollard8j@opensource.org,Female,75.146.212.62,2019-05-04T02:37:08Z,75,12/11/2019
309,Agnesse,Spradbrow,aspradbrow8k@t-online.de,Female,86.163.144.140,2019-05-14T18:22:33Z,7,10/8/2019
310,Letitia,Malinson,lmalinson8l@ihg.com,Female,227.45.234.38,2018-09-03T19:32:32Z,97,7/23/2018
311,Gearard,Laurant,glaurant8m@constantcontact.com,Male,129.55.14.48,2019-12-08T06:26:33Z,35,4/19/2020
312,Wenona,Grinter,wgrinter8n@ovh.net,Female,134.237.21.29,2019-06-28T19:18:31Z,6,11/3/2019
313,Theressa,Disbrey,tdisbrey8o@posterous.com,Female,251.197.250.215,2018-08-12T15:28:43Z,92,5/20/2019
314,Allison,Ludlam,aludlam8p@webs.com,Female,6.3.3.11,2019-08-04T08:20:38Z,50,1/5/2020
315,Candace,Davis,cdavis8q@vimeo.com,Female,59.173.148.164,2018-09-24T18:41:29Z,69,6/4/2020
316,Sharleen,Crump,scrump8r@csmonitor.com,Female,159.36.21.204,2020-06-10T17:58:58Z,14,8/12/2018
317,Elizabet,Rosendahl,erosendahl8s@netlog.com,Female,225.169.74.35,2019-12-30T15:27:21Z,23,4/12/2020
318,Andrej,Colisbe,acolisbe8t@php.net,Male,48.213.13.5,2019-08-18T20:50:14Z,11,10/30/2018
319,Hort,Daynter,hdaynter8u@bluehost.com,Male,97.24.20.61,2019-04-25T22:24:47Z,4,2/25/2020
320,Chryste,Chisolm,cchisolm8v@fda.gov,Female,79.48.95.66,2020-05-13T23:34:17Z,72,7/21/2019
321,Jordan,Willoughby,jwilloughby8w@businessinsider.com,Female,164.196.10.158,2018-06-13T16:56:20Z,47,12/1/2018
322,Dall,Gutowska,dgutowska8x@clickbank.net,Male,130.200.4.54,2018-11-14T03:06:52Z,15,12/23/2019
323,Tobey,Willavize,twillavize8y@google.nl,Female,164.27.212.237,2020-04-21T16:19:52Z,17,7/22/2019
324,Nolana,Whitehair,nwhitehair8z@alexa.com,Female,38.66.211.40,2019-08-01T04:14:40Z,81,9/27/2018
325,Lorin,Boc,lboc90@scientificamerican.com,Male,127.31.75.56,2018-10-14T21:28:48Z,69,12/10/2019
326,Richie,Sautter,rsautter91@163.com,Male,6.206.212.212,2018-08-18T22:14:05Z,34,8/24/2018
327,Mickie,McCloid,mmccloid92@shop-pro.jp,Male,217.155.253.150,2018-10-17T05:15:11Z,16,3/4/2019
328,Constantine,Cejka,ccejka93@yellowpages.com,Female,131.253.35.48,2019-09-29T19:21:23Z,67,1/11/2019
329,Jarrid,Marcam,jmarcam94@desdev.cn,Male,67.124.213.156,2018-09-22T07:01:17Z,97,1/22/2020
330,Richy,Tschirasche,rtschirasche95@delicious.com,Male,61.109.85.230,2019-04-16T12:55:37Z,79,6/14/2018
331,Norbert,Bierton,nbierton96@naver.com,Male,157.193.117.142,2020-05-10T07:22:07Z,11,7/20/2018
332,Aili,Graves,agraves97@squarespace.com,Female,137.129.183.76,2019-01-24T18:40:35Z,49,2/2/2020
333,Lionel,Espinheira,lespinheira98@dot.gov,Male,43.8.167.0,2018-09-25T14:34:03Z,29,10/14/2018
334,Cordey,MacHoste,cmachoste99@scribd.com,Female,215.221.147.190,2018-07-18T08:17:28Z,74,12/10/2018
335,Mellisa,Rojel,mrojel9a@springer.com,Female,6.73.208.22,2018-12-23T09:54:19Z,68,4/12/2020
336,Abigail,Marquand,amarquand9b@wikipedia.org,Female,58.76.198.238,2019-02-07T20:11:52Z,12,5/20/2020
337,Cinda,Salmoni,csalmoni9c@apache.org,Female,5.14.117.77,2018-10-20T21:45:27Z,9,2/9/2020
338,Benny,Anand,banand9d@bloglovin.com,Male,50.201.67.241,2020-05-03T20:50:33Z,9,6/15/2019
339,Izak,Greatorex,igreatorex9e@blinklist.com,Male,242.17.52.164,2018-08-15T01:18:51Z,36,6/24/2018
340,Ivonne,Gurnay,igurnay9f@ifeng.com,Female,162.251.19.104,2018-11-20T10:48:37Z,72,10/26/2018
341,Raina,Boxall,rboxall9g@nydailynews.com,Female,156.192.89.121,2019-04-09T18:21:56Z,77,11/2/2019
342,Cesya,Tieraney,ctieraney9h@tinypic.com,Female,121.195.167.98,2019-03-19T10:41:57Z,25,10/24/2018
343,Lindy,D'Elia,ldelia9i@discuz.net,Male,127.156.55.29,2019-10-20T09:44:59Z,32,3/24/2019
344,Aurora,Girardey,agirardey9j@google.co.uk,Female,54.37.223.171,2019-04-01T14:25:46Z,15,4/6/2020
345,Herve,Jewsbury,hjewsbury9k@wired.com,Male,126.240.234.173,2019-11-30T00:34:26Z,48,7/24/2019
346,Raquel,Bimson,rbimson9l@i2i.jp,Female,142.24.62.208,2019-01-30T10:14:27Z,42,1/26/2019
347,Myles,Quidenham,mquidenham9m@hhs.gov,Male,133.94.129.91,2019-05-28T09:37:48Z,26,5/3/2019
348,Vernice,Munton,vmunton9n@nationalgeographic.com,Female,215.176.203.227,2019-12-21T11:08:32Z,91,7/5/2019
349,Creighton,Beneyto,cbeneyto9o@quantcast.com,Male,228.49.146.184,2020-06-07T09:43:26Z,16,7/9/2018
350,Cullie,Quinn,cquinn9p@abc.net.au,Male,106.58.170.192,2019-02-08T16:56:08Z,5,1/24/2020
351,Ambrose,Littlepage,alittlepage9q@sphinn.com,Male,171.28.245.130,2020-05-07T14:13:56Z,13,3/11/2020
352,Colas,Gaskarth,cgaskarth9r@ucoz.com,Male,247.142.118.0,2019-06-24T01:35:54Z,31,11/22/2019
353,Berke,Huggens,bhuggens9s@ftc.gov,Male,153.106.224.79,2019-02-20T03:37:37Z,3,9/18/2018
354,Karon,Coleman,kcoleman9t@washington.edu,Female,129.203.14.234,2019-08-17T01:35:15Z,10,6/5/2020
355,Darleen,McPhaden,dmcphaden9u@answers.com,Female,120.15.197.25,2019-02-26T15:23:53Z,38,9/7/2019
356,Petey,Turfrey,pturfrey9v@lulu.com,Male,188.217.121.42,2019-01-29T02:28:57Z,28,10/6/2018
357,Jae,Gothup,jgothup9w@clickbank.net,Male,148.23.165.194,2019-09-11T16:02:46Z,27,4/6/2020
358,Evania,Burkhill,eburkhill9x@ucoz.ru,Female,4.106.98.21,2018-07-04T16:46:22Z,66,12/6/2019
359,Layton,Kiernan,lkiernan9y@joomla.org,Male,162.4.111.158,2020-01-16T23:40:28Z,32,11/24/2019
360,Christian,Holstein,cholstein9z@google.com.au,Male,67.222.242.32,2019-08-09T09:43:37Z,52,1/18/2020
361,Dur,Sheer,dsheera0@dailymail.co.uk,Male,165.29.164.67,2018-10-22T18:55:47Z,73,1/11/2019
362,Balduin,Miller,bmillera1@tumblr.com,Male,137.107.214.220,2019-06-11T02:53:20Z,37,9/27/2018
363,Sashenka,Woodham,swoodhama2@instagram.com,Female,192.23.61.220,2019-03-26T21:12:09Z,9,7/5/2019
364,Lilia,Bonnyson,lbonnysona3@ebay.co.uk,Female,74.186.11.206,2020-05-05T15:14:01Z,68,12/5/2018
365,Nat,Kennady,nkennadya4@jiathis.com,Female,66.58.67.104,2019-12-31T03:09:30Z,50,9/3/2019
366,Gene,Ruggs,gruggsa5@sohu.com,Female,199.91.56.44,2019-06-28T03:37:33Z,27,4/25/2019
367,Francesco,Cammock,fcammocka6@techcrunch.com,Male,148.142.202.92,2019-01-22T08:53:34Z,61,7/30/2019
368,Mick,Scott,mscotta7@economist.com,Male,98.187.41.122,2018-11-08T03:44:11Z,76,11/10/2018
369,Emyle,Copson,ecopsona8@bravesites.com,Female,75.175.6.29,2020-02-10T10:03:29Z,22,6/22/2019
370,Sherry,Blune,sblunea9@zimbio.com,Female,181.223.36.98,2019-07-07T21:10:21Z,31,7/27/2019
371,Ruby,Cordoba,rcordobaaa@squarespace.com,Female,130.192.0.19,2019-02-13T22:20:00Z,50,3/23/2019
372,Tiffanie,Lescop,tlescopab@digg.com,Female,116.192.236.61,2019-10-27T21:49:17Z,84,1/6/2019
373,Pail,Lohde,plohdeac@google.cn,Male,75.219.136.198,2020-05-08T19:26:59Z,19,10/13/2019
374,Rheba,Molesworth,rmolesworthad@wsj.com,Female,241.18.81.179,2019-11-13T20:35:08Z,36,3/13/2019
375,Bertha,Anthoin,banthoinae@princeton.edu,Female,161.85.5.22,2019-01-12T13:47:20Z,96,10/12/2018
376,Xever,Doggerell,xdoggerellaf@nih.gov,Male,56.133.103.40,2020-05-05T01:38:56Z,37,1/7/2020
377,Rhody,Wince,rwinceag@shareasale.com,Female,123.140.229.209,2019-02-27T15:43:08Z,30,9/26/2019
378,Pru,Canon,pcanonah@weebly.com,Female,171.107.143.186,2019-09-26T05:45:05Z,22,1/20/2020
379,Glori,Greenshiels,ggreenshielsai@oaic.gov.au,Female,190.76.241.61,2018-07-19T13:21:43Z,46,6/27/2019
380,Hortense,Kehri,hkehriaj@rambler.ru,Female,217.68.72.78,2018-08-19T04:25:28Z,22,7/20/2019
381,Marc,Haggis,mhaggisak@mediafire.com,Male,246.150.56.69,2018-06-25T08:04:24Z,39,1/31/2020
382,Andras,Defraine,adefraineal@cornell.edu,Male,175.69.116.134,2018-10-05T00:10:40Z,71,12/28/2018
383,Patrizia,Trammel,ptrammelam@spiegel.de,Female,167.196.204.232,2020-05-14T14:33:04Z,2,10/11/2018
384,Nero,Tollemache,ntollemachean@ftc.gov,Male,154.127.16.174,2018-12-22T07:57:15Z,22,3/19/2020
385,Jenilee,Lavielle,jlavielleao@google.nl,Female,129.224.187.86,2019-09-16T08:33:25Z,45,3/29/2020
386,Tamara,Norssister,tnorssisterap@goo.gl,Female,119.97.216.169,2018-08-04T00:19:13Z,46,1/24/2019
387,Ernesta,Holdin,eholdinaq@illinois.edu,Female,155.225.9.60,2020-06-09T18:46:42Z,90,4/28/2019
388,Tobe,Tudball,ttudballar@harvard.edu,Male,10.124.171.6,2020-05-31T04:24:42Z,16,2/13/2020
389,Pandora,Greiser,pgreiseras@typepad.com,Female,175.223.152.81,2018-12-15T14:32:48Z,42,2/7/2020
390,Nate,Beal,nbealat@ebay.co.uk,Male,50.206.136.75,2019-02-11T06:11:38Z,28,11/24/2018
391,Mauricio,Teffrey,mteffreyau@e-recht24.de,Male,159.238.189.249,2020-03-07T20:59:43Z,86,4/9/2019
392,Caralie,Quene,cqueneav@harvard.edu,Female,132.77.143.80,2019-03-29T20:00:16Z,18,2/21/2020
393,Penelope,Di Gregorio,pdigregorioaw@4shared.com,Female,225.21.218.207,2019-12-30T08:59:45Z,2,2/21/2019
394,Fairfax,Newiss,fnewissax@bbb.org,Male,110.28.153.15,2019-06-29T02:58:24Z,7,5/12/2019
395,Quinn,Machel,qmachelay@nsw.gov.au,Female,71.49.148.157,2020-03-16T03:47:28Z,79,4/29/2020
396,Rockie,Hartfleet,rhartfleetaz@meetup.com,Male,32.15.176.111,2019-10-23T12:51:08Z,25,6/1/2020
397,Lise,Senten,lsentenb0@gnu.org,Female,174.246.236.49,2018-12-30T19:43:38Z,11,9/5/2019
398,Jed,Sicha,jsichab1@posterous.com,Male,109.88.230.91,2019-02-12T07:49:38Z,55,12/18/2019
399,Zsazsa,Berns,zbernsb2@sciencedaily.com,Female,69.13.153.18,2019-04-01T20:22:26Z,45,10/28/2018
400,Robyn,Cogdell,rcogdellb3@census.gov,Female,137.137.63.102,2019-05-02T01:13:29Z,56,2/27/2019
401,Cob,Orsay,corsayb4@theatlantic.com,Male,119.58.23.236,2018-10-11T12:18:02Z,26,3/4/2020
402,Drucie,Pestell,dpestellb5@economist.com,Female,199.6.90.2,2019-05-21T11:00:06Z,82,5/31/2020
403,Grantham,Leefe,gleefeb6@nasa.gov,Male,228.180.252.34,2018-06-12T08:15:15Z,47,11/6/2018
404,Roanna,Jakoviljevic,rjakoviljevicb7@noaa.gov,Female,96.63.119.3,2020-01-15T11:46:10Z,5,6/26/2019
405,Melli,Goolden,mgooldenb8@hud.gov,Female,227.30.199.147,2018-11-09T07:57:30Z,41,6/26/2019
406,Asher,Coslitt,acoslittb9@jigsy.com,Male,11.13.188.10,2019-08-01T14:21:49Z,93,8/8/2018
407,Mahmoud,Owlner,mowlnerba@webnode.com,Male,39.158.158.52,2019-07-12T00:48:43Z,43,5/8/2020
408,Carolina,Betz,cbetzbb@ted.com,Female,105.245.221.98,2019-06-22T18:06:50Z,55,5/10/2019
409,Alley,Paulon,apaulonbc@nbcnews.com,Male,113.108.180.208,2019-01-10T00:54:19Z,70,6/2/2019
410,Merill,Kleint,mkleintbd@gravatar.com,Male,250.160.37.250,2018-10-15T10:30:50Z,68,12/23/2019
411,Man,Litster,mlitsterbe@e-recht24.de,Male,186.60.51.238,2018-12-08T04:12:13Z,25,8/9/2019
412,Theo,Tolputt,ttolputtbf@baidu.com,Male,99.233.156.129,2018-09-17T20:31:09Z,40,7/16/2019
413,Clementia,Redrup,credrupbg@sciencedirect.com,Female,226.231.71.48,2018-10-20T03:48:56Z,51,12/8/2018
414,Demetris,Sealove,dsealovebh@jugem.jp,Female,92.70.240.81,2020-01-30T01:17:59Z,89,12/7/2018
415,Garrick,Redwood,gredwoodbi@amazon.co.jp,Male,129.34.108.13,2019-09-08T16:09:03Z,16,4/14/2020
416,Sherwin,Dicey,sdiceybj@csmonitor.com,Male,20.71.147.83,2019-03-16T21:23:20Z,12,9/15/2019
417,Sharai,Fawbert,sfawbertbk@desdev.cn,Female,163.180.71.126,2019-04-03T21:08:58Z,85,1/2/2020
418,Leticia,Basill,lbasillbl@senate.gov,Female,159.133.26.57,2018-12-12T16:09:16Z,72,6/2/2019
419,Pooh,Gudge,pgudgebm@qq.com,Female,71.150.107.8,2019-12-12T16:30:02Z,1,8/22/2019
420,Iona,Mothersole,imothersolebn@va.gov,Female,227.245.89.152,2018-07-31T06:11:48Z,33,3/29/2020
421,Caressa,Golds,cgoldsbo@twitter.com,Female,127.72.101.85,2018-07-06T18:51:12Z,46,2/13/2019
422,Roxine,Waggett,rwaggettbp@meetup.com,Female,39.104.51.104,2019-04-03T04:55:59Z,51,1/9/2019
423,Linn,Sandyfirth,lsandyfirthbq@deliciousdays.com,Male,124.61.58.214,2019-11-26T03:42:41Z,49,11/27/2018
424,Madonna,Doneld,mdoneldbr@opera.com,Female,40.214.144.227,2019-08-28T16:20:10Z,80,10/28/2018
425,Axel,Chadwen,achadwenbs@google.ca,Male,210.45.43.147,2018-07-25T22:25:26Z,85,9/12/2018
426,Thorin,Deverick,tdeverickbt@drupal.org,Male,203.50.158.76,2019-03-31T12:05:41Z,9,4/14/2020
427,Edgar,Linklater,elinklaterbu@rambler.ru,Male,16.211.170.95,2020-05-24T06:44:42Z,91,12/16/2019
428,Viviyan,Dadd,vdaddbv@pen.io,Female,14.20.49.214,2018-12-18T22:40:53Z,55,8/25/2018
429,Stacey,Cuffley,scuffleybw@canalblog.com,Female,199.127.173.188,2019-05-27T20:43:50Z,51,1/6/2020
430,Hilly,Kinde,hkindebx@cbc.ca,Male,248.165.221.44,2019-03-10T06:49:30Z,94,6/21/2018
431,Hamish,MacIlory,hmaciloryby@ycombinator.com,Male,100.226.174.253,2018-08-24T11:26:46Z,61,5/9/2019
432,Chen,Candie,ccandiebz@mac.com,Male,200.133.243.194,2019-06-01T11:29:53Z,19,8/9/2019
433,Frasquito,Maddyson,fmaddysonc0@pcworld.com,Male,218.157.146.25,2018-06-13T03:18:33Z,80,9/14/2019
434,Arnie,Mabbitt,amabbittc1@delicious.com,Male,124.254.217.16,2019-12-28T22:23:29Z,29,7/19/2018
435,Vittorio,Muff,vmuffc2@prlog.org,Male,13.20.32.68,2018-09-09T06:10:49Z,37,1/23/2020
436,Isacco,Gobell,igobellc3@tuttocitta.it,Male,109.238.186.206,2020-04-26T08:44:04Z,49,6/20/2018
437,Catherina,Rablin,crablinc4@bloglines.com,Female,231.202.50.40,2019-08-12T04:13:26Z,38,3/26/2020
438,Brig,Skullet,bskulletc5@usnews.com,Male,49.80.125.127,2018-08-28T03:21:10Z,97,1/8/2020
439,Matthieu,Hawksby,mhawksbyc6@bloglines.com,Male,255.144.18.124,2019-09-28T09:30:08Z,25,1/1/2019
440,Victoria,Lockitt,vlockittc7@hp.com,Female,142.0.162.196,2020-02-13T16:25:19Z,95,2/22/2020
441,Karrah,Kinnier,kkinnierc8@usda.gov,Female,19.140.46.238,2019-11-24T17:56:11Z,37,9/1/2018
442,Maddi,Castleman,mcastlemanc9@tamu.edu,Female,97.181.109.7,2019-02-28T15:58:37Z,3,9/24/2018
443,Timmy,Rohan,trohanca@yahoo.co.jp,Female,135.52.226.195,2019-03-30T01:04:01Z,76,11/26/2018
444,Bale,Tomicki,btomickicb@creativecommons.org,Male,36.68.184.146,2020-05-08T05:45:48Z,86,3/19/2020
445,Korella,Ruddiforth,kruddiforthcc@dropbox.com,Female,163.17.28.57,2018-10-09T04:45:45Z,34,3/5/2019
446,Adaline,Cakes,acakescd@woothemes.com,Female,59.201.136.20,2019-07-26T11:02:52Z,86,7/5/2018
447,Dyanna,Destouche,ddestouchece@behance.net,Female,132.68.93.1,2018-07-16T05:31:44Z,81,1/18/2019
448,Ulises,Witty,uwittycf@loc.gov,Male,243.56.111.194,2019-05-18T14:00:22Z,35,11/12/2019
449,Reidar,Walklott,rwalklottcg@wikispaces.com,Male,135.237.204.233,2019-02-16T11:56:06Z,76,9/30/2018
450,Kendall,Becconsall,kbecconsallch@blogger.com,Male,113.37.97.212,2018-11-27T17:51:15Z,21,6/23/2019
451,Rosalind,Belford,rbelfordci@google.de,Female,182.51.83.168,2020-05-23T23:36:20Z,67,4/18/2019
452,Dick,Mansford,dmansfordcj@webnode.com,Male,255.93.8.113,2019-02-23T04:22:43Z,33,5/6/2019
453,Lindsay,Treharne,ltreharneck@umich.edu,Male,134.101.151.217,2018-09-05T05:28:35Z,22,7/14/2019
454,Gauthier,Sterman,gstermancl@rambler.ru,Male,17.110.153.182,2019-07-12T02:51:19Z,83,6/18/2018
455,Danit,Medhurst,dmedhurstcm@nymag.com,Female,190.127.107.245,2019-04-09T02:23:47Z,85,1/2/2020
456,Gill,Kenderdine,gkenderdinecn@hexun.com,Female,23.0.48.192,2020-06-01T13:50:01Z,51,5/30/2020
457,Crin,Renhard,crenhardco@ted.com,Female,235.44.228.228,2020-01-20T11:43:44Z,2,11/19/2018
458,Darryl,Roddie,droddiecp@odnoklassniki.ru,Female,220.209.73.122,2018-09-10T05:26:05Z,4,7/31/2019
459,Jeramey,Nussey,jnusseycq@auda.org.au,Male,166.242.22.15,2018-11-17T21:38:01Z,92,5/6/2020
460,Lolly,McMichell,lmcmichellcr@netscape.com,Female,232.194.26.141,2019-01-15T15:02:49Z,44,6/25/2019
461,Jasmina,Sebley,jsebleycs@theguardian.com,Female,57.118.47.97,2020-05-08T23:56:47Z,56,5/31/2020
462,Westbrooke,Blees,wbleesct@apple.com,Male,25.36.183.65,2019-01-21T07:26:18Z,65,12/8/2018
463,Dunn,Waldrum,dwaldrumcu@arizona.edu,Male,165.213.236.255,2018-12-19T13:34:07Z,84,12/5/2019
464,Doralyn,Vail,dvailcv@kickstarter.com,Female,253.104.20.42,2019-10-17T09:55:06Z,9,1/8/2019
465,Nappy,Duerden,nduerdencw@squidoo.com,Male,175.48.183.222,2019-05-19T06:45:57Z,22,1/27/2020
466,Orion,Barkess,obarkesscx@go.com,Male,11.106.120.163,2019-09-06T16:33:35Z,89,3/8/2019
467,Alverta,Bransgrove,abransgrovecy@timesonline.co.uk,Female,116.95.42.163,2020-04-20T09:12:51Z,14,9/26/2018
468,Robinson,Thrower,rthrowercz@sun.com,Male,14.20.248.216,2018-08-11T04:00:37Z,10,2/6/2019
469,Haily,Witterick,hwitterickd0@weibo.com,Female,2.98.58.77,2020-04-18T16:30:39Z,30,6/3/2019
470,Tomlin,Pechan,tpechand1@hhs.gov,Male,40.166.204.78,2019-11-16T10:09:46Z,70,7/6/2019
471,Cly,Mogg,cmoggd2@mozilla.org,Male,121.120.250.24,2018-10-23T10:19:10Z,47,6/4/2020
472,Morgan,Crosby,mcrosbyd3@prlog.org,Male,101.236.125.206,2019-04-29T02:45:28Z,43,12/30/2019
473,Zedekiah,Ivanichev,zivanichevd4@discuz.net,Male,17.124.120.113,2019-06-21T22:58:03Z,18,3/10/2020
474,Lesley,Hurch,lhurchd5@yahoo.co.jp,Male,93.244.27.235,2019-05-15T21:52:14Z,44,2/20/2019
475,Ginger,Penkman,gpenkmand6@arizona.edu,Female,169.43.69.230,2019-03-26T16:56:41Z,9,7/29/2019
476,Una,McMurtyr,umcmurtyrd7@edublogs.org,Female,122.214.23.115,2019-09-20T23:47:05Z,14,6/3/2020
477,Vernon,Iozefovich,viozefovichd8@whitehouse.gov,Male,216.212.154.184,2020-03-06T16:44:22Z,52,5/21/2019
478,Janean,Swetmore,jswetmored9@free.fr,Female,177.70.0.113,2020-02-21T22:58:19Z,12,11/7/2018
479,Mariele,Poleye,mpoleyeda@illinois.edu,Female,55.194.135.169,2019-07-01T23:51:19Z,15,4/12/2020
480,Francois,Bonevant,fbonevantdb@gnu.org,Male,211.195.210.99,2020-03-19T20:07:00Z,47,10/22/2019
481,Mikey,Alabaster,malabasterdc@umn.edu,Male,174.118.52.11,2019-10-14T20:26:05Z,37,12/28/2018
482,Pace,Ruggieri,pruggieridd@xrea.com,Male,242.134.85.6,2019-12-10T12:21:56Z,37,5/7/2020
483,Albertina,Swatridge,aswatridgede@earthlink.net,Female,144.32.21.214,2019-11-25T02:18:49Z,100,11/15/2019
484,Averill,Bielby,abielbydf@google.ru,Male,25.140.160.227,2020-01-29T05:13:59Z,26,5/24/2020
485,Phylys,Bourcq,pbourcqdg@devhub.com,Female,163.195.126.123,2019-05-22T05:02:44Z,31,3/3/2020
486,Demott,Hawler,dhawlerdh@adobe.com,Male,77.89.101.159,2019-03-18T07:25:25Z,89,6/22/2019
487,Arri,Cullity,acullitydi@japanpost.jp,Male,26.39.119.84,2020-04-13T04:26:53Z,20,5/17/2019
488,Hetty,Sadler,hsadlerdj@bluehost.com,Female,254.201.174.206,2019-05-27T23:49:52Z,93,1/4/2020
489,Rubin,Strowthers,rstrowthersdk@scribd.com,Male,83.86.62.61,2020-06-01T21:50:15Z,74,11/17/2018
490,Randall,North,rnorthdl@who.int,Male,163.224.73.207,2019-09-12T06:12:09Z,37,4/28/2020
491,Johann,Hymor,jhymordm@godaddy.com,Male,226.56.223.89,2018-08-23T18:37:15Z,97,2/18/2019
492,Abbie,Urlich,aurlichdn@facebook.com,Male,29.31.161.230,2020-03-01T11:59:08Z,30,11/9/2018
493,Lauren,Stanaway,lstanawaydo@mapy.cz,Male,191.164.64.159,2020-05-16T15:23:48Z,44,8/31/2018
494,Perkin,Andriveau,pandriveaudp@printfriendly.com,Male,190.32.203.176,2019-09-24T20:50:15Z,17,11/5/2019
495,Abey,Brute,abrutedq@so-net.ne.jp,Male,160.73.191.101,2019-06-18T06:09:17Z,61,12/20/2018
496,Heddi,Bloxsum,hbloxsumdr@admin.ch,Female,159.98.76.167,2020-01-13T03:50:48Z,19,4/2/2019
497,Consalve,Trott,ctrottds@youku.com,Male,34.184.112.4,2018-12-09T15:29:26Z,33,10/4/2019
498,Ferdie,Eeles,feelesdt@bbc.co.uk,Male,28.148.241.237,2019-03-24T07:01:27Z,22,6/28/2019
499,Constantine,Hamlen,chamlendu@ovh.net,Male,238.15.8.249,2019-03-19T21:22:38Z,38,7/17/2018
500,Lilyan,Heningham,lheninghamdv@eventbrite.com,Female,78.136.15.243,2020-04-15T07:31:36Z,24,7/2/2019
501,Karalee,Wormald,kwormalddw@seesaa.net,Female,177.120.37.224,2018-07-16T00:05:40Z,18,11/13/2018
502,Michaella,Took,mtookdx@seattletimes.com,Female,189.77.164.226,2018-09-11T21:00:07Z,76,7/15/2018
503,Emelita,Campa,ecampady@webeden.co.uk,Female,207.166.167.236,2019-04-15T07:08:13Z,92,8/20/2018
504,Maitilde,Leckey,mleckeydz@reverbnation.com,Female,133.225.122.36,2018-09-05T16:04:12Z,71,5/16/2020
505,Rowen,Lamberteschi,rlamberteschie0@parallels.com,Male,235.37.72.182,2018-08-02T13:56:11Z,77,7/22/2018
506,Pegeen,Rains,prainse1@deviantart.com,Female,114.185.46.9,2019-05-11T01:24:22Z,7,7/7/2019
507,Samson,Sigg,ssigge2@dropbox.com,Male,182.43.232.145,2020-03-16T19:15:23Z,4,3/24/2019
508,Willis,Owens,wowense3@plala.or.jp,Male,227.97.251.182,2018-12-17T04:49:09Z,47,6/20/2018
509,Emelen,Sex,esexe4@narod.ru,Male,14.38.152.120,2020-01-09T21:52:35Z,10,6/27/2018
510,Dynah,Ferrieri,dferrierie5@bravesites.com,Female,121.20.100.171,2020-05-10T05:04:26Z,18,4/4/2019
511,Godfree,McElrea,gmcelreae6@cocolog-nifty.com,Male,252.30.31.82,2019-06-18T08:04:11Z,73,12/6/2018
512,Raeann,MacDonnell,rmacdonnelle7@reddit.com,Female,149.137.87.138,2020-03-05T16:36:14Z,77,9/9/2019
513,August,Roberds,aroberdse8@sogou.com,Male,178.45.128.20,2018-11-28T10:42:33Z,37,10/1/2018
514,Rex,Trathan,rtrathane9@youku.com,Male,141.15.192.156,2019-09-27T22:34:16Z,8,12/26/2018
515,Jo-anne,Glasson,jglassonea@shinystat.com,Female,43.85.184.37,2018-08-19T16:25:56Z,94,6/24/2018
516,Robbert,Wey,rweyeb@sciencedirect.com,Male,33.248.201.220,2019-07-10T20:40:00Z,28,11/7/2019
517,Ryley,Bills,rbillsec@ihg.com,Male,50.130.251.155,2019-01-15T22:40:53Z,77,8/30/2018
518,Daphne,Saynor,dsaynored@dailymotion.com,Female,63.69.244.172,2020-06-07T07:01:01Z,100,3/7/2020
519,Ailbert,Stollery,astolleryee@infoseek.co.jp,Male,10.38.207.125,2019-07-01T20:00:00Z,57,12/3/2019
520,Corny,Pinxton,cpinxtonef@51.la,Male,173.134.156.175,2019-05-24T18:59:22Z,43,2/3/2019
521,Silvain,Longford,slongfordeg@exblog.jp,Male,27.174.191.101,2019-05-01T20:44:43Z,73,11/10/2019
522,Wally,Stratten,wstratteneh@surveymonkey.com,Male,44.106.79.179,2018-07-06T23:41:17Z,7,6/10/2020
523,Merissa,Jirus,mjirusei@examiner.com,Female,217.15.204.165,2019-10-28T06:11:34Z,88,8/8/2019
524,Ricca,Northway,rnorthwayej@disqus.com,Female,52.185.146.244,2019-06-23T01:01:15Z,63,2/14/2020
525,Thayne,Carlisle,tcarlisleek@disqus.com,Male,85.13.34.150,2018-08-11T00:32:14Z,5,10/7/2018
526,Ludovico,Acheson,lachesonel@weebly.com,Male,14.116.41.121,2018-06-24T22:17:40Z,85,2/21/2020
527,Joya,Anslow,janslowem@tmall.com,Female,185.110.160.34,2019-01-05T00:27:54Z,85,8/13/2019
528,Renard,Goddard,rgoddarden@fotki.com,Male,203.207.79.236,2019-01-20T22:46:32Z,6,11/29/2018
529,Berry,Bauer,bbauereo@fda.gov,Female,103.199.240.117,2018-10-23T13:25:21Z,82,7/29/2018
530,Reggie,Pygott,rpygottep@privacy.gov.au,Female,105.225.104.159,2020-03-01T07:48:45Z,61,9/5/2018
531,Veronica,Jaynes,vjayneseq@taobao.com,Female,204.190.9.248,2019-12-02T10:34:41Z,80,5/18/2020
532,Buddie,Akess,bakesser@dell.com,Male,94.188.206.36,2019-07-31T22:46:37Z,54,10/14/2018
533,Samson,Tumielli,stumiellies@skype.com,Male,20.27.216.244,2019-12-11T11:47:10Z,10,7/22/2018
534,Derwin,Gercken,dgerckenet@creativecommons.org,Male,27.14.88.253,2018-07-23T22:34:44Z,93,6/19/2018
535,Conny,Wilkowski,cwilkowskieu@seattletimes.com,Male,63.3.63.125,2018-10-21T22:43:33Z,85,9/19/2018
536,Simonette,Lipman,slipmanev@va.gov,Female,17.218.119.125,2019-08-04T21:48:13Z,35,2/15/2019
537,Damara,Armfirld,darmfirldew@slashdot.org,Female,105.74.193.126,2019-05-10T06:10:09Z,81,12/30/2019
538,Thacher,Merlin,tmerlinex@g.co,Male,49.99.36.162,2020-02-17T19:08:12Z,13,1/22/2019
539,Gwenneth,Gilston,ggilstoney@sbwire.com,Female,251.233.159.189,2020-05-05T08:58:57Z,17,9/24/2019
540,Aryn,Francecione,afrancecioneez@marketwatch.com,Female,25.7.138.152,2019-12-25T22:27:46Z,86,7/21/2018
541,Harper,Chell,hchellf0@virginia.edu,Male,76.246.78.243,2020-03-18T01:09:25Z,95,9/10/2019
542,Elene,Asee,easeef1@telegraph.co.uk,Female,25.218.137.158,2018-06-15T00:48:07Z,93,3/5/2019
543,Marilyn,Cargo,mcargof2@boston.com,Female,195.29.255.250,2020-02-22T08:54:12Z,83,2/1/2020
544,Hedvige,Strippling,hstripplingf3@omniture.com,Female,193.72.116.109,2018-07-18T20:36:01Z,61,9/22/2019
545,Lilas,Blakemore,lblakemoref4@noaa.gov,Female,43.0.179.248,2019-09-26T16:48:31Z,17,2/16/2019
546,Reidar,Bould,rbouldf5@fc2.com,Male,249.137.24.88,2019-08-02T17:28:07Z,18,3/9/2019
547,Jarrad,Mateos,jmateosf6@istockphoto.com,Male,240.168.253.140,2018-12-01T13:18:04Z,18,4/20/2020
548,Lannie,Alp,lalpf7@multiply.com,Male,240.196.0.3,2019-11-08T04:39:55Z,37,3/12/2020
549,Mavra,Luetchford,mluetchfordf8@constantcontact.com,Female,111.40.43.181,2019-09-07T07:09:12Z,60,12/27/2019
550,Enrica,Torel,etorelf9@virginia.edu,Female,186.208.148.59,2020-06-10T04:55:20Z,47,6/7/2020
551,Rodrique,Rattenberie,rrattenberiefa@usda.gov,Male,28.160.72.115,2019-05-06T23:44:10Z,71,1/2/2019
552,Werner,Perham,wperhamfb@fda.gov,Male,26.112.234.101,2020-03-20T21:33:04Z,84,5/2/2020
553,Benedict,Karle,bkarlefc@shinystat.com,Male,217.216.194.2,2020-03-05T11:46:51Z,72,4/11/2019
554,Saundra,Timblett,stimblettfd@ocn.ne.jp,Female,23.145.14.119,2019-04-26T20:22:38Z,100,4/20/2020
555,Beitris,Mabbett,bmabbettfe@liveinternet.ru,Female,108.122.91.240,2019-04-09T11:04:55Z,96,3/15/2019
556,Reade,Espine,respineff@squidoo.com,Male,240.113.40.233,2019-01-21T04:37:37Z,70,2/22/2019
557,Arabel,Newvell,anewvellfg@mtv.com,Female,85.6.81.85,2018-09-02T09:22:51Z,51,5/24/2020
558,Boyce,Skipper,bskipperfh@sina.com.cn,Male,14.24.67.221,2019-06-02T14:05:41Z,33,3/9/2019
559,Dulci,Trevallion,dtrevallionfi@purevolume.com,Female,218.109.79.169,2018-06-28T01:41:05Z,40,7/3/2018
560,Earvin,Kunc,ekuncfj@webnode.com,Male,103.217.105.142,2019-08-07T01:58:50Z,15,3/16/2019
561,Ursala,Dreini,udreinifk@blogspot.com,Female,67.176.136.155,2019-01-11T11:13:53Z,97,3/12/2019
562,Eli,Cheatle,echeatlefl@alexa.com,Male,131.74.207.200,2019-11-10T23:36:01Z,95,2/7/2020
563,Balduin,Duffill,bduffillfm@nhs.uk,Male,184.119.236.40,2020-06-10T02:44:42Z,36,5/27/2019
564,Theresa,Doonican,tdoonicanfn@cdbaby.com,Female,61.40.99.255,2019-05-30T20:25:02Z,15,4/11/2019
565,Cristen,Espinet,cespinetfo@shareasale.com,Female,196.132.45.243,2020-03-08T00:14:16Z,5,1/17/2020
566,Martyn,Boyd,mboydfp@php.net,Male,59.255.130.7,2019-07-01T01:31:46Z,13,9/24/2019
567,Levi,Cornford,lcornfordfq@furl.net,Male,179.184.61.120,2019-12-19T12:07:53Z,33,4/26/2019
568,Davine,Pullan,dpullanfr@networkadvertising.org,Female,221.126.11.75,2020-02-07T04:07:49Z,3,4/27/2020
569,Parker,Presser,ppresserfs@pbs.org,Male,134.71.89.221,2020-01-02T18:44:20Z,19,1/4/2019
570,Frederico,Albertson,falbertsonft@sina.com.cn,Male,239.167.19.82,2019-07-19T16:00:28Z,27,12/22/2019
571,Tarra,Gavaran,tgavaranfu@aol.com,Female,16.91.163.201,2020-06-10T00:59:44Z,78,8/12/2018
572,Linn,Fazzioli,lfazziolifv@nytimes.com,Male,108.131.114.131,2020-01-09T07:26:55Z,1,11/20/2018
573,Etan,Dericut,edericutfw@ning.com,Male,156.82.61.197,2020-04-22T08:42:22Z,97,2/4/2019
574,Lock,Osbourn,losbournfx@ebay.com,Male,47.83.205.228,2018-10-01T15:09:07Z,48,8/17/2019
575,Ansell,Helks,ahelksfy@zimbio.com,Male,186.199.164.249,2019-08-10T00:16:45Z,50,7/23/2019
576,Torey,Bantham,tbanthamfz@umn.edu,Male,251.52.149.22,2019-09-29T15:51:06Z,29,8/11/2018
577,Lani,Folkerd,lfolkerdg0@blogtalkradio.com,Female,45.79.16.167,2018-10-14T16:12:06Z,21,3/4/2020
578,Henriette,Burtwhistle,hburtwhistleg1@phoca.cz,Female,110.75.2.229,2020-03-23T03:22:57Z,15,11/14/2019
579,Erastus,O'Sullivan,eosullivang2@symantec.com,Male,186.250.139.29,2018-08-29T03:09:00Z,11,10/25/2018
580,Feodora,McLucky,fmcluckyg3@usnews.com,Female,237.61.40.152,2018-07-12T20:23:32Z,10,4/13/2019
581,Wilhelmine,Wynch,wwynchg4@list-manage.com,Female,161.167.142.107,2019-07-14T18:10:00Z,8,12/26/2018
582,Puff,O' Driscoll,podriscollg5@mtv.com,Male,140.251.32.172,2019-10-19T17:17:52Z,62,3/2/2020
583,Jemima,Densie,jdensieg6@studiopress.com,Female,228.156.220.4,2019-03-21T13:15:14Z,78,4/19/2020
584,Gasparo,Edgworth,gedgworthg7@house.gov,Male,72.64.117.113,2019-10-29T05:37:09Z,51,11/18/2018
585,Ado,Nattrass,anattrassg8@chicagotribune.com,Male,39.113.76.238,2019-10-21T02:12:02Z,58,5/9/2019
586,Elysia,Brindley,ebrindleyg9@illinois.edu,Female,87.251.115.27,2019-08-21T05:38:34Z,10,12/19/2018
587,Garnette,Dunster,gdunsterga@wix.com,Female,49.206.149.98,2018-11-21T12:57:52Z,19,10/30/2019
588,Willis,Grimmer,wgrimmergb@hugedomains.com,Male,59.156.3.149,2019-09-11T14:27:13Z,46,4/24/2019
589,Deanne,Normabell,dnormabellgc@furl.net,Female,246.48.161.11,2019-04-21T03:25:44Z,8,7/23/2019
590,Farra,Brock,fbrockgd@angelfire.com,Female,170.114.172.33,2019-02-22T05:53:28Z,6,2/26/2020
591,Sigismundo,Dee,sdeege@nationalgeographic.com,Male,192.205.233.171,2020-05-11T11:27:00Z,79,12/18/2019
592,Toddy,Ottawell,tottawellgf@imgur.com,Male,243.82.35.85,2020-02-23T13:06:55Z,10,9/24/2018
593,Vicky,Hazlegrove,vhazlegrovegg@xing.com,Female,123.22.202.101,2020-03-01T09:16:28Z,80,7/6/2018
594,Tina,Elies,teliesgh@studiopress.com,Female,6.188.204.238,2018-10-24T02:13:14Z,22,11/9/2018
595,Brandice,Keith,bkeithgi@biglobe.ne.jp,Female,194.220.234.211,2020-05-08T01:30:03Z,14,3/18/2020
596,Ray,Ciciari,rciciarigj@theglobeandmail.com,Female,213.165.67.25,2019-08-04T15:24:02Z,91,10/1/2018
597,Benedetta,Balmann,bbalmanngk@ted.com,Female,39.179.36.72,2018-07-17T00:18:35Z,42,9/9/2018
598,Michaelina,Annes,mannesgl@ask.com,Female,172.21.157.83,2019-01-19T13:58:06Z,84,12/27/2019
599,Aguste,Brewitt,abrewittgm@archive.org,Male,203.237.180.154,2019-01-30T05:53:56Z,50,8/25/2018
600,Lon,Barnwell,lbarnwellgn@infoseek.co.jp,Male,4.163.183.220,2020-02-09T07:14:33Z,25,5/21/2019
601,Ardis,Kamienski,akamienskigo@wiley.com,Female,140.35.54.74,2019-10-30T08:50:07Z,62,7/2/2018
602,Berk,Iacovielli,biacovielligp@omniture.com,Male,226.7.160.171,2019-05-18T12:37:30Z,79,2/8/2020
603,Kathryne,Moisey,kmoiseygq@earthlink.net,Female,141.210.157.219,2018-06-11T06:44:19Z,49,2/7/2020
604,Puff,Gatherell,pgatherellgr@skyrock.com,Male,17.161.252.167,2019-03-16T22:36:56Z,46,5/21/2020
605,Elsworth,Quested,equestedgs@meetup.com,Male,215.136.240.166,2019-09-27T00:15:47Z,52,5/14/2020
606,Siffre,Walentynowicz,swalentynowiczgt@census.gov,Male,29.182.69.168,2019-05-10T13:53:24Z,33,3/14/2020
607,Abey,Bellham,abellhamgu@slate.com,Male,192.239.190.106,2019-06-17T06:37:12Z,88,4/7/2020
608,Megen,Lenthall,mlenthallgv@webs.com,Female,60.83.63.175,2019-11-25T23:08:13Z,97,7/2/2018
609,Yul,Stucksbury,ystucksburygw@wp.com,Male,31.212.228.186,2020-05-23T12:28:05Z,13,5/25/2019
610,Burton,Birkenshaw,bbirkenshawgx@edublogs.org,Male,224.186.241.62,2019-04-15T07:33:23Z,22,1/6/2019
611,Gery,Aurelius,gaureliusgy@jugem.jp,Male,0.254.221.203,2019-06-21T20:04:43Z,13,11/6/2018
612,Julieta,Penelli,jpenelligz@themeforest.net,Female,147.11.227.235,2020-02-10T18:40:32Z,87,8/25/2019
613,Cosimo,MacDuff,cmacduffh0@zimbio.com,Male,40.39.220.30,2019-07-05T04:54:36Z,59,11/23/2019
614,Baxter,Matuszak,bmatuszakh1@nymag.com,Male,149.158.218.157,2019-03-09T04:51:20Z,70,7/1/2018
615,Herta,Solly,hsollyh2@meetup.com,Female,252.106.148.5,2019-07-04T05:48:01Z,82,10/30/2019
616,Abigale,Dearle-Palser,adearlepalserh3@google.it,Female,192.141.194.251,2019-03-26T14:32:13Z,63,12/23/2019
617,Dodi,Pimley,dpimleyh4@youtube.com,Female,118.28.248.225,2018-06-30T17:45:29Z,66,3/23/2019
618,Jenilee,Annets,jannetsh5@geocities.com,Female,156.75.26.164,2018-12-24T05:47:42Z,99,1/20/2019
619,Axe,Dunkerly,adunkerlyh6@cdbaby.com,Male,40.124.221.242,2018-06-23T09:22:32Z,91,11/23/2019
620,Ambrose,Ben-Aharon,abenaharonh7@woothemes.com,Male,24.173.106.163,2019-06-04T07:11:29Z,11,2/23/2020
621,Merv,Caldeyroux,mcaldeyrouxh8@ebay.com,Male,155.89.86.136,2020-05-17T04:22:48Z,14,2/29/2020
622,Thacher,Abelson,tabelsonh9@cbc.ca,Male,227.128.137.115,2019-07-27T03:35:40Z,27,11/7/2018
623,Ingram,Broxup,ibroxupha@a8.net,Male,146.157.239.147,2019-08-07T00:50:15Z,37,9/30/2019
624,Giacomo,Fanton,gfantonhb@linkedin.com,Male,161.145.48.58,2019-02-16T17:36:42Z,38,10/17/2018
625,Bill,Addenbrooke,baddenbrookehc@sogou.com,Male,57.7.145.135,2018-12-14T10:57:02Z,26,1/16/2020
626,Ives,Soutter,isoutterhd@twitter.com,Male,25.48.164.110,2018-06-17T06:52:30Z,100,1/14/2019
627,Jeramie,Couronne,jcouronnehe@ow.ly,Male,220.0.10.85,2018-06-30T13:13:46Z,18,8/24/2019
628,Sergeant,Culvey,sculveyhf@ocn.ne.jp,Male,69.35.170.148,2019-07-23T16:36:47Z,43,5/21/2020
629,Murdock,Foulis,mfoulishg@whitehouse.gov,Male,87.41.134.117,2018-08-19T11:01:28Z,2,8/17/2018
630,Dalila,Jerram,djerramhh@qq.com,Female,55.199.247.9,2019-03-22T07:11:21Z,73,4/1/2020
631,Yankee,Paolacci,ypaolaccihi@ifeng.com,Male,238.140.227.75,2019-05-30T01:54:03Z,37,6/18/2019
632,Amabelle,Kilcullen,akilcullenhj@sakura.ne.jp,Female,207.193.131.106,2020-01-21T00:44:24Z,70,3/10/2019
633,Ronny,Jubb,rjubbhk@go.com,Male,88.128.209.13,2018-12-04T11:44:33Z,66,4/18/2019
634,Tarra,Down,tdownhl@businessweek.com,Female,201.254.139.218,2019-10-07T21:49:49Z,65,3/26/2019
635,Gerhardt,Kittle,gkittlehm@wufoo.com,Male,103.22.63.140,2020-04-03T13:19:19Z,83,5/7/2020
636,Minnnie,Petrasso,mpetrassohn@360.cn,Female,170.117.210.195,2019-06-13T04:09:44Z,63,8/2/2019
637,Breanne,Crimp,bcrimpho@gov.uk,Female,177.51.1.65,2019-04-16T15:01:28Z,71,11/7/2019
638,Carita,Seeviour,cseeviourhp@google.pl,Female,190.3.70.201,2019-12-08T05:56:22Z,37,4/8/2019
639,Graehme,Pruvost,gpruvosthq@cisco.com,Male,180.26.82.225,2020-03-03T21:26:07Z,19,12/15/2018
640,Phylys,Martinelli,pmartinellihr@instagram.com,Female,70.238.144.110,2020-03-07T20:07:35Z,34,2/26/2020
641,Woodrow,Brokenshire,wbrokenshirehs@nyu.edu,Male,21.220.217.200,2018-10-13T04:30:11Z,92,9/5/2018
642,Hershel,Cana,hcanaht@virginia.edu,Male,66.86.91.98,2019-11-02T17:13:39Z,75,3/29/2020
643,Adaline,Nerne,anernehu@bravesites.com,Female,129.76.94.117,2019-08-03T08:04:02Z,58,6/12/2018
644,Arie,Larn,alarnhv@bbb.org,Male,219.188.38.45,2018-07-18T12:18:57Z,81,4/7/2020
645,Earle,Gracewood,egracewoodhw@salon.com,Male,4.7.82.145,2019-12-23T10:20:03Z,2,10/15/2018
646,Egbert,Yeowell,eyeowellhx@amazonaws.com,Male,204.2.10.81,2020-06-05T08:09:27Z,41,3/27/2020
647,Eyde,Creigan,ecreiganhy@weather.com,Female,49.8.229.33,2019-02-05T03:28:10Z,79,5/29/2020
648,Kirbie,Dacke,kdackehz@webmd.com,Female,84.24.227.240,2019-01-26T02:17:03Z,15,8/5/2019
649,Sergio,Revey,sreveyi0@alibaba.com,Male,30.64.109.84,2018-09-25T14:37:44Z,81,3/25/2019
650,Sidnee,Grigoriscu,sgrigoriscui1@techcrunch.com,Male,27.136.0.41,2019-07-26T16:34:15Z,91,7/12/2018
651,Janice,Gillespie,jgillespiei2@ovh.net,Female,255.57.95.186,2018-12-15T22:24:55Z,33,1/18/2019
652,Omero,Pettigree,opettigreei3@oakley.com,Male,68.221.22.22,2018-08-22T05:17:56Z,50,5/10/2020
653,Rudie,Cozens,rcozensi4@nytimes.com,Male,183.121.142.75,2019-07-28T23:33:59Z,70,6/17/2018
654,Mannie,Duny,mdunyi5@opera.com,Male,208.27.177.208,2019-01-15T14:25:10Z,95,3/11/2019
655,Brianne,Redihalgh,bredihalghi6@skype.com,Female,158.181.163.4,2019-11-19T22:12:50Z,20,8/8/2019
656,Nevin,Vaines,nvainesi7@is.gd,Male,93.35.246.129,2019-12-18T03:50:28Z,13,3/16/2020
657,Laurice,Glabach,lglabachi8@facebook.com,Female,208.162.246.17,2020-01-24T14:18:45Z,81,10/27/2018
658,Doy,Slyme,dslymei9@samsung.com,Male,130.216.201.76,2018-09-30T00:36:41Z,3,3/30/2019
659,Rosina,Cripps,rcrippsia@diigo.com,Female,138.191.23.127,2019-03-26T03:07:48Z,99,3/15/2020
660,Lela,Bisset,lbissetib@state.gov,Female,231.214.33.88,2020-03-31T01:11:05Z,27,12/2/2018
661,Adolphe,Cassella,acassellaic@vinaora.com,Male,128.243.119.119,2019-08-29T12:17:13Z,47,1/18/2019
662,Marrissa,Trahar,mtraharid@ow.ly,Female,225.45.230.145,2019-12-05T03:56:49Z,53,2/15/2019
663,Trisha,Scothron,tscothronie@privacy.gov.au,Female,119.179.71.16,2019-04-24T22:42:57Z,79,8/24/2018
664,Marilin,Giddons,mgiddonsif@vkontakte.ru,Female,201.208.103.208,2019-03-24T05:01:30Z,36,9/17/2019
665,Brandy,Whelband,bwhelbandig@google.cn,Male,169.35.121.237,2020-05-04T02:05:36Z,53,4/8/2019
666,Othelia,Weiner,oweinerih@hexun.com,Female,14.68.76.181,2020-04-20T00:51:02Z,66,2/3/2020
667,Gray,O'Brien,gobrienii@unicef.org,Female,171.177.134.186,2020-01-27T09:21:49Z,43,4/1/2019
668,Bianca,Masterton,bmastertonij@earthlink.net,Female,146.35.37.109,2018-10-19T20:29:16Z,58,12/27/2018
669,Vivian,Aplin,vaplinik@upenn.edu,Female,74.4.214.245,2020-04-13T21:27:46Z,53,2/12/2020
670,Sher,Folcarelli,sfolcarelliil@mapy.cz,Female,3.114.249.89,2020-04-26T13:54:38Z,59,4/18/2019
671,Roxane,Reicharz,rreicharzim@slideshare.net,Female,92.117.135.16,2019-11-12T11:21:14Z,30,7/31/2018
672,Theo,Peal,tpealin@tiny.cc,Male,177.181.105.198,2019-02-15T16:54:15Z,82,3/1/2020
673,Thain,Pinfold,tpinfoldio@ycombinator.com,Male,133.237.228.47,2019-10-23T02:12:12Z,29,5/23/2019
674,Theodor,Mulloch,tmullochip@opera.com,Male,13.73.88.84,2020-05-01T03:22:04Z,61,7/14/2018
675,Shannan,Egdell,segdelliq@state.tx.us,Male,158.89.92.69,2019-02-13T05:14:43Z,14,8/12/2018
676,Bealle,Gammade,bgammadeir@whitehouse.gov,Male,166.171.120.113,2019-08-28T19:30:16Z,46,3/6/2020
677,Gray,Jebb,gjebbis@amazonaws.com,Female,154.0.55.145,2020-05-07T18:43:14Z,26,11/22/2018
678,Burnaby,Hatchette,bhatchetteit@ted.com,Male,53.118.84.225,2020-05-14T17:01:34Z,7,11/29/2018
679,Codie,Pye,cpyeiu@histats.com,Male,196.37.82.104,2019-07-11T14:10:37Z,10,11/23/2019
680,Clim,Lanning,clanningiv@microsoft.com,Male,31.233.94.98,2020-04-22T10:56:02Z,7,4/13/2019
681,Milton,Le Ball,mleballiw@sakura.ne.jp,Male,244.103.132.41,2019-10-15T03:32:56Z,39,10/6/2018
682,Emery,Harback,eharbackix@spotify.com,Male,240.229.180.66,2019-01-16T17:47:39Z,68,9/4/2018
683,Wendy,Lochhead,wlochheadiy@google.com.au,Female,99.74.37.98,2019-03-25T02:36:07Z,63,2/14/2019
684,Giacopo,Moatt,gmoattiz@kickstarter.com,Male,123.45.247.174,2019-12-22T21:54:55Z,60,10/22/2019
685,Wandie,Benediktsson,wbenediktssonj0@cnbc.com,Female,234.129.149.111,2018-08-28T20:02:35Z,15,11/1/2018
686,Lorettalorna,Tremeer,ltremeerj1@cpanel.net,Female,127.158.190.186,2018-07-07T10:45:12Z,81,9/30/2019
687,Cherish,Spence,cspencej2@house.gov,Female,28.68.108.115,2019-08-09T02:43:46Z,71,3/9/2019
688,Codie,Kelleher,ckelleherj3@usda.gov,Male,180.6.132.57,2020-01-27T03:17:12Z,34,9/28/2018
689,Barney,De Freyne,bdefreynej4@ucsd.edu,Male,5.254.57.248,2019-04-08T08:45:41Z,44,6/22/2018
690,Tawsha,Killock,tkillockj5@intel.com,Female,15.141.206.46,2019-06-19T18:41:13Z,2,8/20/2019
691,Gill,Pettingill,gpettingillj6@bizjournals.com,Female,61.179.43.50,2018-12-22T22:18:03Z,37,10/6/2019
692,Rustie,Blackboro,rblackboroj7@umich.edu,Male,154.139.154.152,2020-01-04T20:59:28Z,91,5/12/2020
693,Spenser,Lelliott,slelliottj8@livejournal.com,Male,148.146.82.39,2018-06-24T12:33:10Z,69,7/25/2018
694,Camey,Tippetts,ctippettsj9@fotki.com,Male,14.175.102.179,2019-02-25T15:04:54Z,68,4/17/2020
695,Dorian,Calafato,dcalafatoja@wix.com,Female,102.251.27.147,2019-10-19T13:55:58Z,84,6/3/2019
696,Luke,Munnion,lmunnionjb@uol.com.br,Male,221.72.173.182,2019-08-13T07:19:04Z,41,1/17/2019
697,Eleanor,Fantham,efanthamjc@mapquest.com,Female,17.13.217.143,2018-07-20T07:49:28Z,17,9/21/2018
698,Griffith,Cosh,gcoshjd@topsy.com,Male,224.41.53.172,2018-11-06T04:18:54Z,32,11/5/2019
699,Sigvard,Kynston,skynstonje@goo.ne.jp,Male,86.112.13.207,2019-06-29T09:09:46Z,64,6/24/2019
700,Kaitlyn,Shorey,kshoreyjf@disqus.com,Female,65.199.83.5,2018-08-27T20:49:28Z,94,4/21/2020
701,Vaughan,Edmand,vedmandjg@latimes.com,Male,83.211.54.2,2020-01-05T18:17:10Z,95,5/16/2020
702,Brigit,Clout,bcloutjh@goo.ne.jp,Female,111.254.6.179,2019-01-26T13:28:06Z,74,11/28/2018
703,Franklyn,Cottrill,fcottrillji@github.com,Male,243.85.136.52,2020-03-12T23:00:35Z,86,7/10/2019
704,Irma,Karlmann,ikarlmannjj@businesswire.com,Female,203.158.106.203,2019-04-24T22:00:05Z,76,6/10/2019
705,Valle,Griffitt,vgriffittjk@whitehouse.gov,Male,25.186.84.47,2018-11-13T21:43:15Z,56,6/9/2020
706,Julieta,Chinge,jchingejl@narod.ru,Female,75.166.212.151,2020-02-01T18:51:56Z,98,6/1/2020
707,Conan,Hunnybun,chunnybunjm@tumblr.com,Male,34.79.114.107,2018-07-10T20:42:05Z,22,6/21/2018
708,Cristiano,Baradel,cbaradeljn@hc360.com,Male,23.47.248.152,2020-03-03T11:31:43Z,37,5/11/2020
709,Antons,Elliot,aelliotjo@imgur.com,Male,173.57.248.155,2019-07-16T14:18:15Z,51,6/5/2020
710,Garold,Darey,gdareyjp@discuz.net,Male,72.68.136.179,2019-12-14T10:30:54Z,15,1/25/2020
711,Rockey,Coenraets,rcoenraetsjq@cpanel.net,Male,31.57.138.5,2018-12-03T12:50:18Z,62,8/17/2019
712,Hilary,Pryer,hpryerjr@ft.com,Female,156.108.198.61,2019-09-12T13:33:59Z,53,8/14/2019
713,Carolee,Lindback,clindbackjs@ustream.tv,Female,189.2.58.198,2019-05-11T01:47:45Z,4,1/12/2019
714,Benni,Choldcroft,bcholdcroftjt@friendfeed.com,Female,107.8.27.9,2020-05-13T11:48:33Z,95,12/31/2018
715,Edwin,Sturley,esturleyju@mashable.com,Male,246.45.196.48,2018-06-20T13:02:09Z,17,2/9/2020
716,Andriana,Glander,aglanderjv@livejournal.com,Female,74.12.119.102,2019-03-11T19:46:19Z,54,3/24/2019
717,Augy,Peggrem,apeggremjw@stanford.edu,Male,81.49.171.134,2019-10-01T17:54:56Z,8,10/12/2018
718,Karney,Bome,kbomejx@51.la,Male,48.30.178.181,2018-10-03T08:28:26Z,72,11/13/2019
719,Meir,Duffie,mduffiejy@engadget.com,Male,146.155.196.254,2019-11-30T01:25:46Z,66,5/14/2020
720,Ottilie,Wolverson,owolversonjz@hp.com,Female,32.0.238.9,2020-02-01T09:22:25Z,89,5/23/2019
721,Kellie,Behnke,kbehnkek0@meetup.com,Female,124.109.91.208,2019-09-07T22:32:04Z,78,4/7/2019
722,Tildi,Iredale,tiredalek1@cornell.edu,Female,242.97.177.52,2019-05-17T12:17:57Z,33,12/27/2019
723,Eddi,Claiden,eclaidenk2@cpanel.net,Female,197.237.175.6,2019-10-08T02:35:17Z,88,11/3/2019
724,Herman,Bunworth,hbunworthk3@usgs.gov,Male,125.180.122.235,2020-05-13T07:58:54Z,23,8/2/2019
725,Anneliese,Craik,acraikk4@cloudflare.com,Female,37.194.112.79,2020-04-01T10:32:55Z,13,3/2/2019
726,Marjory,Cud,mcudk5@alexa.com,Female,224.114.17.198,2020-01-22T20:17:57Z,7,7/24/2019
727,Prinz,Stillwell,pstillwellk6@ycombinator.com,Male,255.125.57.193,2019-07-17T09:29:40Z,50,10/4/2018
728,Averill,McGuckin,amcguckink7@geocities.jp,Male,241.70.158.154,2019-06-24T13:42:23Z,87,12/27/2018
729,Velvet,Slemmonds,vslemmondsk8@scribd.com,Female,17.47.22.249,2019-01-27T07:38:34Z,32,2/28/2019
730,Mohandis,Jerratsch,mjerratschk9@homestead.com,Male,10.71.158.93,2020-05-16T13:11:35Z,16,11/9/2018
731,Tamqrah,Durtnel,tdurtnelka@acquirethisname.com,Female,67.22.131.34,2019-05-20T18:03:11Z,20,6/10/2020
732,Faber,Rude,frudekb@cyberchimps.com,Male,85.198.227.20,2018-10-03T06:01:52Z,24,2/13/2019
733,Ilario,Binder,ibinderkc@amazon.co.jp,Male,34.77.49.80,2019-09-15T20:28:46Z,57,4/30/2019
734,Marylin,Pether,mpetherkd@webeden.co.uk,Female,35.128.95.241,2019-02-16T11:19:25Z,7,3/27/2020
735,Rosemaria,Kauscher,rkauscherke@nyu.edu,Female,248.52.145.248,2019-02-25T07:13:10Z,20,8/23/2019
736,Amanda,Botterell,abotterellkf@biblegateway.com,Female,217.169.59.19,2019-11-23T06:48:06Z,82,10/12/2018
737,Antoni,Puckham,apuckhamkg@washington.edu,Male,207.152.147.35,2018-12-21T13:17:50Z,100,7/29/2018
738,Jessalin,Servante,jservantekh@sun.com,Female,129.24.72.33,2019-11-27T22:04:44Z,16,7/28/2019
739,Rafi,Gofford,rgoffordki@mediafire.com,Male,75.80.89.18,2019-09-17T08:05:46Z,86,11/3/2019
740,Ellynn,Cord,ecordkj@typepad.com,Female,56.52.109.170,2019-10-02T10:45:18Z,12,10/24/2019
741,Blinny,Wanklin,bwanklinkk@livejournal.com,Female,144.255.40.23,2019-11-28T11:22:54Z,20,10/6/2019
742,Matthus,Flay,mflaykl@yolasite.com,Male,132.138.114.218,2018-08-15T17:09:10Z,88,12/27/2019
743,Willard,Bramwich,wbramwichkm@elegantthemes.com,Male,4.208.119.152,2019-08-07T07:53:21Z,100,1/24/2019
744,Lemar,Stanyon,lstanyonkn@dagondesign.com,Male,148.34.10.171,2019-04-25T00:45:16Z,15,8/20/2019
745,Adams,Torri,atorriko@utexas.edu,Male,70.189.217.221,2019-04-25T15:04:46Z,41,4/5/2020
746,Corinna,Huyhton,chuyhtonkp@goodreads.com,Female,160.3.60.200,2019-09-06T22:22:34Z,43,2/4/2019
747,Tatiania,Shimoni,tshimonikq@nbcnews.com,Female,197.48.19.105,2019-12-14T12:04:12Z,77,10/19/2019
748,Ernestine,Merrilees,emerrileeskr@paginegialle.it,Female,239.253.106.67,2019-06-23T14:54:23Z,81,10/17/2018
749,Olenolin,Blaine,oblaineks@facebook.com,Male,241.250.57.40,2019-06-22T05:19:49Z,17,10/25/2018
750,Celia,Pecht,cpechtkt@hc360.com,Female,78.160.203.57,2019-06-25T23:11:48Z,15,3/20/2019
751,Marylinda,Roland,mrolandku@virginia.edu,Female,45.11.212.158,2019-12-20T22:42:55Z,30,12/12/2019
752,Hanni,Tarling,htarlingkv@google.co.jp,Female,99.85.79.160,2020-05-05T05:10:27Z,30,2/3/2020
753,Gaby,Hubber,ghubberkw@flavors.me,Male,231.212.174.203,2018-07-10T04:53:24Z,30,4/19/2019
754,Emmy,O' Connell,eoconnellkx@stanford.edu,Male,85.173.79.24,2018-11-12T13:41:01Z,28,4/18/2020
755,Kendrick,Tewkesbury.,ktewkesburyky@amazon.co.jp,Male,208.93.36.158,2019-04-01T03:50:38Z,8,10/24/2018
756,Lev,Genders,lgenderskz@cdc.gov,Male,161.26.164.70,2019-09-03T00:20:52Z,65,12/12/2018
757,Onfre,Cordrey,ocordreyl0@eepurl.com,Male,161.216.249.2,2020-05-03T22:38:11Z,9,9/14/2019
758,Sophey,Steart,ssteartl1@meetup.com,Female,229.239.32.18,2018-10-12T16:49:07Z,30,12/19/2019
759,Chelsea,Kiehl,ckiehll2@europa.eu,Female,117.227.226.243,2019-03-21T11:30:48Z,83,10/23/2018
760,Delilah,Rumbellow,drumbellowl3@jalbum.net,Female,5.3.203.45,2019-12-19T21:34:51Z,31,12/1/2018
761,Nicola,Ripping,nrippingl4@ameblo.jp,Male,107.30.48.87,2020-01-02T09:31:27Z,23,11/23/2018
762,Freemon,Carl,fcarll5@unesco.org,Male,9.215.197.220,2019-10-30T23:46:43Z,7,12/2/2018
763,Jacinta,Riach,jriachl6@woothemes.com,Female,82.121.118.18,2019-12-21T10:14:16Z,51,6/4/2020
764,Willie,Hollibone,whollibonel7@paginegialle.it,Male,130.212.82.65,2019-03-22T06:27:00Z,29,7/14/2019
765,Erminia,Gellert,egellertl8@php.net,Female,38.232.36.193,2018-09-29T23:28:26Z,28,3/25/2020
766,Teressa,Spinage,tspinagel9@wikia.com,Female,233.115.61.155,2018-07-10T10:58:51Z,85,12/19/2018
767,Poul,Lowrie,plowriela@wordpress.org,Male,161.231.187.141,2018-09-23T21:06:55Z,47,11/21/2018
768,Brett,Beyn,bbeynlb@bloglovin.com,Female,63.52.247.90,2018-07-19T17:49:37Z,47,11/13/2018
769,Vivi,Kerin,vkerinlc@vkontakte.ru,Female,230.217.197.94,2019-06-10T10:10:06Z,57,11/6/2019
770,Christy,Eastham,ceasthamld@home.pl,Male,203.67.76.249,2020-01-19T05:25:08Z,65,12/12/2018
771,Richy,Robjohns,rrobjohnsle@fc2.com,Male,122.125.113.223,2019-07-26T22:21:45Z,61,11/20/2018
772,Merrie,MacIntyre,mmacintyrelf@unc.edu,Female,161.226.92.60,2019-01-15T04:56:01Z,36,6/17/2019
773,Rogerio,VanBrugh,rvanbrughlg@topsy.com,Male,194.112.250.74,2020-06-03T03:12:43Z,90,11/19/2019
774,Nelia,Gallant,ngallantlh@de.vu,Female,7.203.96.114,2020-03-26T09:20:03Z,36,10/21/2019
775,Vita,Magill,vmagillli@edublogs.org,Female,33.226.78.32,2019-12-12T15:11:26Z,20,5/9/2020
776,Cosimo,Boustead,cbousteadlj@reverbnation.com,Male,93.226.16.14,2018-12-29T16:25:11Z,80,5/20/2020
777,Teodorico,McMorran,tmcmorranlk@nydailynews.com,Male,241.96.80.141,2019-12-22T22:10:03Z,28,6/14/2019
778,Berton,Riding,bridingll@cam.ac.uk,Male,245.220.94.79,2018-08-20T09:03:09Z,38,2/23/2020
779,Lorilee,Pratty,lprattylm@weibo.com,Female,213.87.146.99,2019-02-14T01:54:46Z,39,3/2/2019
780,Adriana,Burless,aburlessln@xing.com,Female,78.130.20.43,2019-12-02T06:37:13Z,9,9/11/2019
781,Judd,Lorain,jlorainlo@biglobe.ne.jp,Male,88.228.186.201,2019-07-04T08:52:11Z,58,12/1/2018
782,Ricca,Leebeter,rleebeterlp@auda.org.au,Female,90.241.4.180,2020-04-29T00:00:03Z,67,5/28/2019
783,Emile,Jouanet,ejouanetlq@zdnet.com,Male,167.186.235.234,2019-09-25T12:44:26Z,20,4/11/2019
784,Cinnamon,Yushachkov,cyushachkovlr@rediff.com,Female,91.247.153.203,2020-05-05T17:44:10Z,57,7/5/2019
785,Jefferson,Beaven,jbeavenls@senate.gov,Male,241.23.195.63,2019-03-26T03:16:45Z,17,8/17/2019
786,Sigismund,Felderer,sfeldererlt@hc360.com,Male,144.187.80.181,2018-11-02T14:54:56Z,76,1/31/2020
787,Gery,Stefanovic,gstefanoviclu@sina.com.cn,Male,130.131.190.50,2020-05-27T00:51:50Z,8,1/28/2019
788,Huntlee,Dandy,hdandylv@drupal.org,Male,220.81.179.195,2020-02-19T13:57:25Z,92,9/20/2018
789,Courtenay,Covendon,ccovendonlw@nsw.gov.au,Female,246.93.165.100,2019-10-05T11:48:16Z,41,4/2/2020
790,Elfrida,Senechault,esenechaultlx@unesco.org,Female,246.106.146.126,2018-09-04T00:27:01Z,11,6/2/2019
791,Gwennie,Bowler,gbowlerly@odnoklassniki.ru,Female,244.1.222.136,2019-08-15T09:49:54Z,98,8/21/2019
792,Lorilee,Monery,lmonerylz@webs.com,Female,76.106.56.84,2019-03-23T13:30:47Z,92,11/3/2018
793,Dorian,Meron,dmeronm0@sina.com.cn,Female,30.209.108.212,2019-01-09T22:06:33Z,44,7/2/2018
794,Mathian,Abramzon,mabramzonm1@un.org,Male,112.110.119.6,2019-03-03T08:49:01Z,76,10/6/2019
795,Ardelle,Klempke,aklempkem2@people.com.cn,Female,154.47.11.100,2019-07-14T17:27:06Z,17,8/31/2018
796,Margo,Dagnall,mdagnallm3@bandcamp.com,Female,116.237.131.100,2020-06-04T22:59:58Z,52,3/9/2020
797,Guinna,Lithcow,glithcowm4@theglobeandmail.com,Female,109.88.245.129,2018-08-13T19:32:16Z,41,11/28/2019
798,Ciro,Meeland,cmeelandm5@netscape.com,Male,235.94.89.249,2019-05-14T07:29:47Z,14,8/23/2019
799,Kienan,Rodwell,krodwellm6@opensource.org,Male,190.78.32.48,2018-07-31T08:24:13Z,85,9/15/2019
800,Ramsay,Whytock,rwhytockm7@ebay.com,Male,197.153.129.176,2019-05-11T09:26:00Z,54,4/1/2020
801,Willyt,Baines,wbainesm8@youtu.be,Female,212.110.120.107,2019-06-28T21:30:48Z,40,8/24/2019
802,Aleta,Mattheus,amattheusm9@aol.com,Female,207.186.54.18,2020-03-18T08:42:31Z,40,11/15/2018
803,Durand,Tredger,dtredgerma@mail.ru,Male,7.86.189.30,2020-04-15T20:44:40Z,73,12/6/2018
804,Madge,Tindall,mtindallmb@cloudflare.com,Female,8.155.231.88,2018-07-16T05:23:29Z,95,11/30/2019
805,Karole,Goodbur,kgoodburmc@toplist.cz,Female,47.221.120.67,2018-07-04T22:14:58Z,14,7/9/2018
806,Gav,McIlvenny,gmcilvennymd@github.com,Male,54.14.139.135,2020-01-20T08:45:50Z,78,5/11/2019
807,Idelle,Lyddiard,ilyddiardme@eepurl.com,Female,6.186.39.1,2018-09-25T23:41:01Z,46,7/5/2018
808,Liliane,Fetherston,lfetherstonmf@ucoz.com,Female,245.216.121.196,2020-05-18T23:06:52Z,69,11/29/2019
809,Allister,Tourry,atourrymg@biglobe.ne.jp,Male,132.235.174.97,2018-09-01T05:31:20Z,91,4/14/2020
810,Brandise,Jouannot,bjouannotmh@artisteer.com,Female,76.66.251.97,2018-08-10T03:44:50Z,72,6/6/2019
811,Hurley,Hourihan,hhourihanmi@nsw.gov.au,Male,229.180.30.19,2019-10-25T05:52:44Z,90,5/10/2020
812,Farra,Maccraw,fmaccrawmj@un.org,Female,9.21.237.189,2019-11-04T06:11:59Z,47,6/17/2018
813,Kevon,Klessmann,kklessmannmk@nps.gov,Male,21.98.109.48,2020-03-17T06:23:52Z,61,3/10/2020
814,Bibi,Latehouse,blatehouseml@umn.edu,Female,216.164.32.171,2019-12-28T08:28:47Z,3,3/12/2020
815,Felisha,Dyzart,fdyzartmm@house.gov,Female,14.194.77.17,2020-02-11T04:39:19Z,90,3/7/2019
816,Coraline,Foort,cfoortmn@imageshack.us,Female,252.195.111.227,2019-03-19T21:37:16Z,5,7/26/2018
817,Aksel,Baruch,abaruchmo@yellowpages.com,Male,12.148.12.130,2018-11-24T08:22:28Z,50,9/21/2019
818,Dalton,Columbell,dcolumbellmp@mapy.cz,Male,40.241.4.160,2019-04-29T22:54:14Z,71,7/25/2018
819,Ruggiero,Czajkowska,rczajkowskamq@imageshack.us,Male,52.126.40.205,2018-08-15T20:16:44Z,44,7/16/2018
820,Oliviero,Fawkes,ofawkesmr@123-reg.co.uk,Male,189.93.91.63,2019-03-05T02:29:47Z,82,6/16/2018
821,Emmy,Yeliashev,eyeliashevms@amazonaws.com,Male,219.131.71.32,2020-01-19T17:04:26Z,66,9/10/2018
822,Auroora,Le Galle,alegallemt@csmonitor.com,Female,163.255.71.235,2020-03-05T22:24:57Z,6,12/10/2018
823,Tommy,Donnel,tdonnelmu@livejournal.com,Male,102.90.66.182,2019-04-18T02:27:41Z,98,5/1/2019
824,Bennett,Sandal,bsandalmv@telegraph.co.uk,Male,174.58.99.150,2019-09-28T13:37:10Z,25,12/23/2018
825,Maurita,Aldwinckle,maldwincklemw@delicious.com,Female,248.68.62.184,2019-10-08T19:13:27Z,29,11/4/2018
826,Shep,Livett,slivettmx@wikimedia.org,Male,95.18.105.152,2020-06-07T05:18:35Z,21,9/16/2019
827,Nicol,Loudwell,nloudwellmy@newsvine.com,Male,115.98.182.30,2020-05-15T18:17:02Z,25,12/1/2018
828,Guthrie,Julian,gjulianmz@mapy.cz,Male,169.236.234.224,2019-10-12T16:55:32Z,53,8/20/2019
829,Ranee,Guerreau,rguerreaun0@pen.io,Female,118.6.206.37,2018-07-13T16:12:30Z,91,2/28/2020
830,Sibella,Tuson,stusonn1@jigsy.com,Female,97.19.45.204,2018-11-12T14:14:43Z,12,7/9/2018
831,Arv,Petow,apetown2@noaa.gov,Male,170.191.197.138,2019-04-26T02:25:22Z,71,10/28/2019
832,Fredek,Polack,fpolackn3@unicef.org,Male,254.136.57.231,2020-04-11T20:11:56Z,84,1/10/2019
833,Tove,Griggs,tgriggsn4@usda.gov,Female,56.34.182.0,2020-03-24T23:56:39Z,85,4/5/2020
834,Marlo,Northin,mnorthinn5@seesaa.net,Male,140.146.87.117,2019-01-31T23:05:44Z,68,7/21/2019
835,Filbert,Knee,fkneen6@linkedin.com,Male,180.178.222.100,2019-03-31T19:39:55Z,67,6/12/2019
836,Filmer,Follitt,ffollittn7@un.org,Male,127.69.214.97,2019-12-08T18:26:53Z,81,3/9/2020
837,Fons,Croft,fcroftn8@comcast.net,Male,51.193.63.192,2018-10-22T08:55:41Z,2,9/1/2019
838,Sheff,Deason,sdeasonn9@joomla.org,Male,192.188.178.214,2019-12-31T10:01:26Z,33,6/11/2019
839,Reece,Wimp,rwimpna@prnewswire.com,Male,21.71.137.243,2018-07-23T15:44:09Z,50,11/16/2019
840,Rhianon,Hearons,rhearonsnb@go.com,Female,81.36.93.227,2020-01-21T20:19:09Z,51,2/25/2020
841,Glyn,Twycross,gtwycrossnc@nih.gov,Female,52.237.105.173,2019-09-30T21:25:49Z,95,3/8/2020
842,Melisse,Twist,mtwistnd@wix.com,Female,133.141.0.192,2018-07-30T19:37:22Z,55,4/18/2019
843,Ronald,Berney,rberneyne@fc2.com,Male,94.74.97.129,2019-01-25T23:01:57Z,62,1/23/2020
844,Doralynn,Fairholme,dfairholmenf@yellowbook.com,Female,90.49.205.182,2019-07-06T20:42:15Z,76,11/29/2019
845,Phaidra,Maplethorp,pmaplethorpng@live.com,Female,151.10.103.248,2019-06-29T07:28:48Z,27,5/26/2020
846,Kasey,Semkins,ksemkinsnh@msn.com,Female,141.66.197.124,2020-05-07T15:16:21Z,33,3/5/2020
847,Bowie,Bohl,bbohlni@wordpress.org,Male,99.102.106.214,2019-01-15T09:10:53Z,54,1/2/2020
848,Wendi,Biset,wbisetnj@webmd.com,Female,135.45.65.254,2018-07-02T23:50:42Z,93,11/8/2019
849,Gram,Foulstone,gfoulstonenk@jimdo.com,Male,228.236.157.59,2018-10-15T00:36:09Z,65,6/29/2018
850,Phaidra,Hamley,phamleynl@slate.com,Female,13.255.159.49,2020-04-07T20:06:47Z,78,3/26/2020
851,Hercules,Joss,hjossnm@sina.com.cn,Male,114.223.129.47,2019-11-14T22:30:25Z,65,10/22/2018
852,Gerek,Bunyan,gbunyannn@oracle.com,Male,157.90.244.191,2020-04-01T09:14:57Z,4,9/20/2019
853,Torrey,Stothard,tstothardno@marketwatch.com,Male,53.188.13.89,2019-11-12T21:12:28Z,53,1/29/2020
854,Nedda,Bobasch,nbobaschnp@edublogs.org,Female,112.86.85.153,2019-08-02T07:28:01Z,20,5/20/2020
855,Stacee,Steaning,ssteaningnq@t.co,Male,84.38.198.199,2018-06-17T09:28:03Z,92,2/29/2020
856,Anabal,Ciottoi,aciottoinr@wufoo.com,Female,225.76.120.100,2018-07-01T04:22:04Z,81,1/10/2019
857,Suzie,Tommeo,stommeons@merriam-webster.com,Female,191.116.42.201,2018-11-01T02:16:50Z,44,6/22/2019
858,Bat,Reasun,breasunnt@quantcast.com,Male,31.243.135.101,2019-10-13T17:04:41Z,29,3/13/2019
859,Pietra,Spain,pspainnu@blinklist.com,Female,123.209.236.149,2018-07-14T17:13:07Z,15,12/21/2019
860,Forrest,Feuell,ffeuellnv@surveymonkey.com,Male,38.215.158.147,2019-08-29T10:14:48Z,95,5/26/2019
861,Vittorio,Newick,vnewicknw@sphinn.com,Male,121.54.242.48,2020-04-30T14:15:23Z,42,6/25/2019
862,Jorrie,Byles,jbylesnx@usatoday.com,Female,123.137.89.85,2020-03-05T08:05:46Z,38,9/15/2018
863,Dennie,Blowes,dblowesny@weebly.com,Male,210.135.126.71,2019-02-13T02:01:43Z,36,6/11/2018
864,Wernher,Basterfield,wbasterfieldnz@xrea.com,Male,22.67.103.223,2018-08-07T21:58:49Z,37,1/1/2019
865,Ella,Labbez,elabbezo0@hc360.com,Female,255.178.71.168,2020-03-13T05:10:38Z,63,2/17/2020
866,Steffie,Verrico,sverricoo1@ted.com,Female,140.208.216.155,2020-05-01T13:38:26Z,65,9/4/2019
867,Gratia,Jaeggi,gjaeggio2@shutterfly.com,Female,255.239.12.33,2019-01-20T09:19:43Z,37,11/7/2018
868,Carmelita,Sobieski,csobieskio3@barnesandnoble.com,Female,29.101.116.144,2020-02-04T19:11:48Z,33,2/4/2020
869,Maryrose,O'Brollachain,mobrollachaino4@walmart.com,Female,214.30.243.29,2019-08-29T04:55:42Z,96,5/5/2020
870,Gretna,Camden,gcamdeno5@mozilla.org,Female,105.129.172.169,2020-01-01T22:03:15Z,17,4/12/2019
871,Grace,Caps,gcapso6@time.com,Female,208.222.16.136,2019-12-06T22:06:41Z,41,10/10/2019
872,Orelie,Antonietti,oantoniettio7@myspace.com,Female,122.100.191.148,2018-12-09T03:08:07Z,9,1/25/2020
873,Angil,Halbard,ahalbardo8@gmpg.org,Female,213.63.129.124,2020-04-29T14:02:30Z,65,9/2/2019
874,Kristine,Weakley,kweakleyo9@unesco.org,Female,48.17.141.235,2019-08-20T11:49:16Z,13,12/24/2019
875,Urson,Pietrowicz,upietrowiczoa@liveinternet.ru,Male,80.35.156.151,2019-02-21T23:35:27Z,88,10/13/2019
876,Birgitta,Grange,bgrangeob@harvard.edu,Female,47.100.253.230,2019-04-27T03:23:30Z,68,11/17/2019
877,Leia,Nelmes,lnelmesoc@dedecms.com,Female,62.5.88.149,2019-02-11T22:24:10Z,15,5/11/2019
878,Inglebert,Disman,idismanod@amazon.co.uk,Male,189.203.175.108,2019-09-14T16:48:29Z,99,12/5/2018
879,Bobbee,Ridsdale,bridsdaleoe@ow.ly,Female,193.245.126.52,2020-01-24T04:22:11Z,18,9/6/2018
880,Andee,Sinclar,asinclarof@amazon.de,Female,156.200.212.204,2019-11-02T07:54:43Z,42,10/16/2019
881,Cinnamon,Spacy,cspacyog@infoseek.co.jp,Female,128.244.123.74,2018-12-09T03:45:14Z,1,9/7/2019
882,Muffin,Kerkham,mkerkhamoh@g.co,Female,97.198.41.60,2018-12-07T04:10:48Z,93,8/26/2018
883,Rudolfo,Peasnone,rpeasnoneoi@list-manage.com,Male,213.175.101.32,2018-08-11T06:50:54Z,71,7/20/2019
884,Drake,Phythean,dphytheanoj@chicagotribune.com,Male,207.116.167.189,2019-04-16T13:36:00Z,66,11/7/2018
885,Ebeneser,Spellman,espellmanok@wp.com,Male,182.98.39.47,2019-06-21T04:35:49Z,63,8/1/2019
886,Margaux,Wannes,mwannesol@telegraph.co.uk,Female,53.36.57.134,2020-03-24T06:34:30Z,60,12/24/2018
887,Gregoor,Chimienti,gchimientiom@cyberchimps.com,Male,81.192.105.176,2018-07-05T03:35:06Z,97,7/26/2019
888,Trudi,Ullyott,tullyotton@house.gov,Female,74.252.247.153,2019-12-07T06:39:16Z,43,7/10/2018
889,Nathanil,Rockwill,nrockwilloo@army.mil,Male,252.244.132.158,2018-11-24T22:30:43Z,26,10/16/2019
890,Fred,Huison,fhuisonop@networkadvertising.org,Female,114.72.125.40,2020-01-31T06:43:31Z,22,6/1/2019
891,Auroora,Jecock,ajecockoq@miitbeian.gov.cn,Female,5.40.139.35,2020-02-21T20:36:05Z,14,8/30/2018
892,Byram,Sego,bsegoor@discovery.com,Male,13.179.215.195,2019-09-27T10:27:59Z,41,3/8/2019
893,Mohandis,Moquin,mmoquinos@themeforest.net,Male,161.181.186.158,2019-02-06T17:03:38Z,25,11/20/2019
894,Sandi,Bellord,sbellordot@tripod.com,Female,143.12.254.239,2019-09-03T15:36:36Z,88,10/6/2019
895,Swen,Oswald,soswaldou@prweb.com,Male,36.209.65.3,2018-12-26T10:01:32Z,70,9/8/2019
896,Kamila,Lippiello,klippielloov@cornell.edu,Female,61.24.5.96,2018-11-10T17:10:24Z,36,4/26/2019
897,Bail,Caudray,bcaudrayow@princeton.edu,Male,254.132.167.255,2019-08-08T18:04:09Z,51,7/24/2018
898,Myrta,MacDunlevy,mmacdunlevyox@instagram.com,Female,140.179.59.207,2020-04-29T12:56:00Z,5,12/2/2019
899,Torey,McGuff,tmcguffoy@github.io,Female,55.34.226.184,2019-12-28T02:07:04Z,81,10/29/2019
900,Natassia,Inglesant,ninglesantoz@cnn.com,Female,163.245.152.38,2018-11-20T15:55:36Z,66,10/19/2019
901,Mariquilla,Semens,msemensp0@foxnews.com,Female,30.64.213.92,2019-02-09T03:36:43Z,86,6/12/2019
902,Glen,Lohmeyer,glohmeyerp1@seattletimes.com,Male,22.98.44.155,2018-08-22T23:29:46Z,49,2/6/2019
903,Ringo,Bricknell,rbricknellp2@arstechnica.com,Male,119.56.6.38,2019-02-10T22:56:06Z,9,11/21/2018
904,Aldis,Rengger,arenggerp3@globo.com,Male,106.128.213.221,2019-03-26T15:15:13Z,76,3/27/2020
905,Dennie,Pakes,dpakesp4@yelp.com,Male,115.37.142.107,2020-02-18T10:13:55Z,35,11/12/2018
906,Ransell,Geistbeck,rgeistbeckp5@spotify.com,Male,47.52.130.161,2019-03-04T07:11:46Z,22,10/26/2019
907,Correy,Scollard,cscollardp6@live.com,Male,136.59.208.218,2018-07-06T16:54:10Z,39,5/2/2019
908,Drew,Bird,dbirdp7@census.gov,Male,46.138.15.116,2018-07-08T07:56:11Z,33,7/7/2018
909,Thaine,Bachmann,tbachmannp8@ucsd.edu,Male,215.211.29.170,2019-10-04T20:15:40Z,30,2/21/2019
910,Neysa,Zambon,nzambonp9@pinterest.com,Female,241.209.242.56,2020-04-26T09:10:48Z,20,9/8/2019
911,Lannie,Kubicki,lkubickipa@tuttocitta.it,Male,166.13.23.86,2019-05-07T19:52:36Z,45,5/10/2020
912,Kaila,Schubert,kschubertpb@gnu.org,Female,200.78.69.78,2018-08-30T03:37:16Z,90,12/25/2019
913,Israel,Strutz,istrutzpc@java.com,Male,51.208.104.89,2019-05-12T13:31:47Z,73,1/5/2020
914,Loise,Ashling,lashlingpd@addtoany.com,Female,152.187.103.148,2019-08-05T14:46:53Z,62,6/10/2020
915,Kylynn,D'Antuoni,kdantuonipe@tamu.edu,Female,109.229.43.255,2019-06-12T18:43:39Z,4,1/4/2020
916,Ilka,Giottini,igiottinipf@sogou.com,Female,81.29.177.89,2018-06-21T15:39:13Z,92,6/20/2018
917,Heall,Chown,hchownpg@gravatar.com,Male,120.9.141.89,2019-06-18T02:43:52Z,46,2/9/2020
918,Rasla,Botly,rbotlyph@vkontakte.ru,Female,121.230.76.159,2019-04-02T03:40:30Z,39,12/30/2018
919,Curtice,Tankus,ctankuspi@msn.com,Male,245.36.251.89,2020-04-25T21:14:12Z,38,8/15/2019
920,Fleur,McDirmid,fmcdirmidpj@wiley.com,Female,181.179.94.35,2019-09-12T06:05:05Z,18,8/11/2019
921,Janella,Rubinsky,jrubinskypk@icio.us,Female,109.108.213.77,2019-07-18T02:39:39Z,57,5/31/2020
922,Hubie,Matyasik,hmatyasikpl@zdnet.com,Male,106.173.149.24,2019-01-26T21:49:08Z,47,9/9/2018
923,Gerti,Goolding,ggooldingpm@cbsnews.com,Female,47.131.128.179,2020-01-15T09:19:36Z,43,9/15/2018
924,Enos,Colbert,ecolbertpn@symantec.com,Male,250.198.253.238,2019-02-10T01:24:51Z,4,12/23/2019
925,Malvin,Pilmer,mpilmerpo@examiner.com,Male,48.92.250.26,2018-07-25T11:39:42Z,74,1/7/2020
926,Brooks,Mattys,bmattyspp@usa.gov,Female,153.93.24.54,2019-01-23T11:48:31Z,96,5/14/2019
927,Laird,Bagott,lbagottpq@columbia.edu,Male,17.243.238.48,2018-08-30T23:35:19Z,59,7/5/2018
928,Pierette,Pound,ppoundpr@dion.ne.jp,Female,132.221.85.81,2020-01-04T20:27:45Z,56,2/10/2020
929,Eyde,Padly,epadlyps@boston.com,Female,136.237.144.24,2018-09-19T22:04:05Z,77,12/16/2018
930,Borg,Brundale,bbrundalept@usa.gov,Male,42.244.229.197,2018-07-23T19:15:46Z,48,4/18/2019
931,Wallis,Urlin,wurlinpu@blogs.com,Male,149.204.0.87,2019-06-27T03:46:15Z,91,12/5/2018
932,Shell,Cameron,scameronpv@moonfruit.com,Male,161.73.103.19,2018-09-03T10:19:40Z,90,9/11/2019
933,Hewie,Cowan,hcowanpw@1und1.de,Male,10.121.98.241,2019-06-23T04:04:06Z,25,3/14/2019
934,Alana,Dibdale,adibdalepx@weebly.com,Female,180.65.178.169,2020-04-07T17:59:05Z,63,8/29/2019
935,Joann,Mayman,jmaymanpy@deviantart.com,Female,219.88.146.126,2018-08-30T14:02:16Z,62,11/18/2019
936,Sarita,Giscken,sgisckenpz@jalbum.net,Female,172.144.159.106,2018-06-17T05:42:53Z,37,1/4/2020
937,Noelle,Dicken,ndickenq0@sitemeter.com,Female,139.208.178.252,2019-01-23T16:38:36Z,20,6/13/2019
938,Phelia,Wilsdon,pwilsdonq1@technorati.com,Female,102.146.32.36,2018-10-28T19:55:41Z,17,10/18/2019
939,Darcie,Bavidge,dbavidgeq2@hp.com,Female,110.203.27.75,2019-12-14T18:58:02Z,89,11/29/2018
940,Bradford,Merle,bmerleq3@chicagotribune.com,Male,201.134.141.160,2020-05-16T14:28:49Z,66,6/23/2018
941,Amelia,Osan,aosanq4@merriam-webster.com,Female,204.25.58.107,2018-06-15T21:18:44Z,63,9/29/2018
942,Ardelia,Stone,astoneq5@bravesites.com,Female,12.47.12.108,2020-01-16T20:18:49Z,11,9/21/2018
943,Anselm,Gollin,agollinq6@linkedin.com,Male,151.44.56.233,2018-07-19T22:54:35Z,84,7/23/2018
944,Nora,McVey,nmcveyq7@ebay.com,Female,1.120.83.219,2019-01-20T00:29:46Z,13,12/21/2018
945,Rochester,Eaton,reatonq8@odnoklassniki.ru,Male,202.57.215.181,2020-04-18T08:34:47Z,80,2/16/2019
946,Rafe,Meininking,rmeininkingq9@printfriendly.com,Male,172.112.124.130,2020-04-20T08:38:43Z,8,8/8/2019
947,Katha,Shimwell,kshimwellqa@cmu.edu,Female,155.102.32.208,2020-04-06T07:47:48Z,2,2/4/2020
948,Norean,Folbige,nfolbigeqb@opensource.org,Female,241.15.130.195,2020-01-07T15:05:56Z,60,1/26/2019
949,Brier,Reinger,breingerqc@ft.com,Female,100.141.201.28,2019-12-02T12:41:55Z,36,9/5/2018
950,Harlan,Kilmary,hkilmaryqd@soup.io,Male,161.2.234.33,2019-08-27T08:36:10Z,18,3/11/2019
951,Bev,Lintott,blintottqe@washington.edu,Male,183.211.203.177,2019-12-09T14:09:12Z,88,4/17/2020
952,Maryanne,Folliss,mfollissqf@earthlink.net,Female,158.167.56.236,2019-05-22T05:09:41Z,8,6/27/2018
953,Jakob,Bonds,jbondsqg@uol.com.br,Male,171.160.198.176,2018-07-17T14:23:01Z,34,1/25/2020
954,Stan,Weaving,sweavingqh@creativecommons.org,Male,248.243.216.64,2019-07-02T03:57:20Z,86,2/11/2020
955,Louisette,Warbey,lwarbeyqi@amazon.de,Female,128.208.29.148,2018-10-24T03:22:19Z,62,4/20/2020
956,Casey,Haslum,chaslumqj@go.com,Male,18.126.31.240,2018-08-05T04:21:24Z,60,6/5/2020
957,Sherman,Ranaghan,sranaghanqk@adobe.com,Male,56.71.196.173,2018-12-05T09:25:09Z,100,4/11/2020
958,Bili,Boydon,bboydonql@w3.org,Female,62.184.212.6,2019-12-30T10:27:22Z,48,2/9/2019
959,Rayna,Gawkes,rgawkesqm@geocities.com,Female,10.185.125.97,2018-12-30T08:50:59Z,33,1/2/2019
960,Wallis,Felstead,wfelsteadqn@oracle.com,Female,194.168.244.21,2019-04-28T10:10:37Z,88,3/21/2019
961,Zak,Brownsey,zbrownseyqo@foxnews.com,Male,215.28.162.167,2019-10-09T19:35:33Z,17,12/9/2019
962,Carine,Helder,chelderqp@studiopress.com,Female,63.136.31.70,2019-12-26T13:54:22Z,72,10/26/2018
963,Charlton,Hirsthouse,chirsthouseqq@nydailynews.com,Male,10.179.9.63,2020-02-29T01:43:20Z,49,3/2/2019
964,Charleen,Joyner,cjoynerqr@mlb.com,Female,174.190.149.107,2019-04-01T07:54:05Z,85,1/20/2020
965,Udell,Slowley,uslowleyqs@jiathis.com,Male,120.212.110.81,2018-11-17T07:35:00Z,19,9/24/2018
966,Chelsea,Giraldez,cgiraldezqt@businesswire.com,Female,254.115.78.215,2019-03-12T13:13:51Z,6,2/6/2020
967,Baryram,Dingwall,bdingwallqu@fotki.com,Male,75.120.39.12,2018-06-16T22:40:50Z,28,9/27/2018
968,Pennie,Cambridge,pcambridgeqv@example.com,Male,165.93.103.155,2019-11-23T22:30:17Z,91,10/28/2018
969,Ramona,Shapira,rshapiraqw@histats.com,Female,75.246.9.193,2019-03-13T09:25:15Z,1,6/10/2020
970,Olivette,Stienham,ostienhamqx@ifeng.com,Female,248.48.171.157,2019-05-15T07:31:40Z,65,3/4/2019
971,Lazaro,Bomb,lbombqy@miitbeian.gov.cn,Male,7.116.4.152,2019-07-23T22:18:53Z,12,6/4/2019
972,Annmarie,Cawthry,acawthryqz@amazonaws.com,Female,116.235.27.14,2018-08-21T02:40:26Z,28,8/8/2019
973,Lawrence,Keggin,lkegginr0@epa.gov,Male,169.170.203.144,2018-07-10T14:10:07Z,48,6/12/2018
974,Ludvig,Byk,lbykr1@utexas.edu,Male,123.216.202.208,2020-04-06T07:13:24Z,65,4/13/2019
975,Rica,Buffery,rbufferyr2@studiopress.com,Female,79.116.94.54,2020-04-20T04:34:20Z,86,5/17/2019
976,Dorothea,Mateus,dmateusr3@imageshack.us,Female,24.122.113.171,2018-10-23T03:45:18Z,89,5/12/2020
977,Ax,Dymoke,adymoker4@foxnews.com,Male,75.66.132.69,2020-03-07T20:22:07Z,9,10/18/2018
978,Eilis,Posner,eposnerr5@xinhuanet.com,Female,201.160.160.234,2020-06-05T03:19:49Z,35,12/20/2019
979,Averil,Charnley,acharnleyr6@t.co,Male,212.55.138.133,2019-08-12T16:51:57Z,53,8/1/2019
980,Ericha,Grog,egrogr7@wired.com,Female,81.86.42.21,2018-07-30T16:31:01Z,53,9/4/2018
981,Welch,Boundey,wboundeyr8@opera.com,Male,55.226.24.19,2018-07-06T09:13:48Z,5,12/10/2018
982,Raychel,Giacomasso,rgiacomassor9@bluehost.com,Female,241.116.31.187,2018-08-11T01:24:41Z,63,7/31/2019
983,Roxine,McDaid,rmcdaidra@cmu.edu,Female,84.226.155.191,2018-09-08T22:58:38Z,8,9/7/2019
984,Morley,Gregol,mgregolrb@dyndns.org,Male,128.58.58.138,2018-09-27T07:29:02Z,75,5/11/2020
985,Penn,Rotherham,protherhamrc@narod.ru,Male,253.132.20.19,2020-03-22T13:48:58Z,10,3/2/2019
986,Jase,Chritchley,jchritchleyrd@360.cn,Male,203.122.212.58,2020-05-18T05:07:00Z,54,5/24/2020
987,Zelma,Cherry,zcherryre@godaddy.com,Female,164.141.48.206,2019-01-19T16:36:48Z,51,1/30/2019
988,Grenville,Penberthy,gpenberthyrf@slashdot.org,Male,186.178.244.70,2019-12-31T10:43:59Z,35,9/30/2018
989,Ellyn,Clyburn,eclyburnrg@opensource.org,Female,172.147.72.103,2018-10-28T07:42:51Z,59,7/19/2019
990,Atalanta,Alvarado,aalvaradorh@sciencedaily.com,Female,213.150.4.5,2018-12-29T15:23:38Z,10,7/8/2019
991,Lorelei,Ashman,lashmanri@instagram.com,Female,252.167.206.216,2019-01-02T14:01:39Z,8,3/21/2020
992,Any,Karsh,akarshrj@sakura.ne.jp,Male,111.222.170.77,2019-06-09T12:17:09Z,74,6/16/2019
993,Friedrick,Karpol,fkarpolrk@google.ca,Male,82.11.3.113,2019-03-10T03:20:56Z,13,6/23/2018
994,Allayne,Hinstock,ahinstockrl@ca.gov,Male,250.40.82.165,2019-07-15T02:04:44Z,18,12/1/2019
995,Sonnie,O'Cridigan,socridiganrm@digg.com,Female,90.199.95.113,2020-02-02T10:59:09Z,81,6/25/2019
996,Babs,Phippen,bphippenrn@addthis.com,Female,56.248.139.161,2019-03-26T21:08:01Z,25,5/9/2020
997,Leisha,Canavan,lcanavanro@chicagotribune.com,Female,163.121.29.81,2019-10-16T02:23:56Z,95,2/13/2019
998,Rod,Gratrex,rgratrexrp@ebay.co.uk,Male,166.211.161.164,2019-07-31T23:14:38Z,68,4/14/2019
999,Graeme,Dorbin,gdorbinrq@blogger.com,Male,82.84.173.181,2019-10-05T15:40:13Z,64,9/27/2018
1000,Fifine,Grut,fgrutrr@yellowbook.com,Female,112.68.155.201,2018-06-13T10:30:27Z,7,1/11/2020
